"";"V1";"V2";"V3"
"1";"CAYENNE";"KOUROU";"0.1667"
"2";"CAYENNE";"AVIGNON";"0.1667"
"3";"CAYENNE";"DIJON";"0.1667"
"4";"CAYENNE";"POINTE-A-PITRE";"0.1667"
"5";"CAYENNE";"REIMS";"1"
"6";"CAYENNE";"SAINT-DENIS";"0.3333"
"7";"CAYENNE";"LILLE";"3"
"8";"CAYENNE";"LYON";"0.3333"
"9";"CAYENNE";"MARSEILLE-AIX";"0.1667"
"10";"CAYENNE";"MONTPELLIER";"2.8334"
"11";"CAYENNE";"PARIS";"1.1667"
"12";"CAYENNE";"TOULOUSE";"0.1667"
"13";"CHERVES-RICHEMONT";"AVIGNON";"0.1667"
"14";"CHERVES-RICHEMONT";"NARBONNE";"0.1667"
"15";"CHERVES-RICHEMONT";"MONTPELLIER";"0.1667"
"16";"GUERMANGE";"VANDOEUVRE-LES-NANCY";"1"
"17";"PROVINS";"PARIS";"1"
"18";"ANCENIS";"RENNES";"2"
"19";"KOUROU";"CLUNY";"0.1667"
"20";"KOUROU";"PAU";"0.1667"
"21";"KOUROU";"MARSEILLE-AIX";"0.1667"
"22";"KOUROU";"MONTPELLIER";"2.9333"
"23";"KOUROU";"VANDOEUVRE-LES-NANCY";"0.1667"
"24";"AGEN";"TOULOUSE";"0.3333"
"25";"AIMARGUES";"ORLEANS";"0.0357"
"26";"AIMARGUES";"MONTPELLIER";"1"
"27";"AIMARGUES";"NANTES";"0.1667"
"28";"AIMARGUES";"PARIS";"2.1667"
"29";"AJACCIO";"ANGERS";"1"
"30";"AJACCIO";"CORTE";"4.3333"
"31";"AJACCIO";"GRENOBLE";"0.9999"
"32";"AJACCIO";"MARSEILLE-AIX";"1.9999"
"33";"AJACCIO";"NICE";"0.1667"
"34";"AJACCIO";"PARIS";"0.1667"
"35";"AJACCIO";"TOULOUSE";"0.3333"
"36";"AJACCIO";"VANDOEUVRE-LES-NANCY";"1"
"37";"ALBI";"ALES";"2.0182"
"38";"ALBI";"ANGERS";"0.3333"
"39";"ALBI";"AVIGNON";"6.8333"
"40";"ALBI";"BESANCON";"0.0182"
"41";"ALBI";"CAEN";"0.0182"
"42";"ALBI";"CHALONS-SUR-MARNE";"0.0182"
"43";"ALBI";"COMPIEGNE";"1.3333"
"44";"ALBI";"EPINAL";"4.6666"
"45";"ALBI";"FONT-ROMEU";"2"
"46";"ALBI";"GRAMAT";"1.3333"
"47";"ALBI";"LE-HAVRE";"0.3333"
"48";"ALBI";"LE-MANS";"0.0182"
"49";"ALBI";"LIMOGES";"0.5"
"50";"ALBI";"LORIENT";"0.2"
"51";"ALBI";"METZ";"0.0278"
"52";"ALBI";"MONT-DE-MARSAN";"0.1667"
"53";"ALBI";"MULHOUSE";"3.8333"
"54";"ALBI";"ORLEANS";"7.3333"
"55";"ALBI";"PAU";"0.7126"
"56";"ALBI";"POITIERS";"1.0459"
"57";"ALBI";"SAINT-ETIENNE";"4.1278"
"58";"ALBI";"SELESTAT";"0.3333"
"59";"ALBI";"TOULON";"0.3333"
"60";"ALBI";"ANNECY-LE-VIEUX";"0.0278"
"61";"ALBI";"BORDEAUX";"3.6666"
"62";"ALBI";"CLERMONT-FERRAND";"2.646"
"63";"ALBI";"GRENOBLE";"2.3333"
"64";"ALBI";"LILLE";"2.6666"
"65";"ALBI";"LYON";"5.1666"
"66";"ALBI";"MONTPELLIER";"1.7126"
"67";"ALBI";"NANTES";"0.6666"
"68";"ALBI";"NICE";"0.1667"
"69";"ALBI";"PARIS";"21.2936"
"70";"ALBI";"STRASBOURG";"7.3333"
"71";"ALBI";"TOULOUSE";"42.4477"
"72";"ALBI";"VANDOEUVRE-LES-NANCY";"2.5"
"73";"ALES";"AVIGNON";"4.469"
"74";"ALES";"BESANCON";"0.0182"
"75";"ALES";"CAEN";"4.3871"
"76";"ALES";"CHALONS-SUR-MARNE";"0.0849"
"77";"ALES";"CHERBOURG";"0.3333"
"78";"ALES";"COMPIEGNE";"0.0278"
"79";"ALES";"LE-MANS";"1.6848"
"80";"ALES";"LIMOGES";"0.3333"
"81";"ALES";"LORIENT";"0.8334"
"82";"ALES";"METZ";"0.3333"
"83";"ALES";"MULHOUSE";"0.0357"
"84";"ALES";"ORLEANS";"1.3302"
"85";"ALES";"PAMIERS";"0.1"
"86";"ALES";"PAU";"0.6848"
"87";"ALES";"PIERRELATTE";"0.3333"
"88";"ALES";"POITIERS";"1.5539"
"89";"ALES";"ROANNE";"0.3333"
"90";"ALES";"ROUEN";"0.2334"
"91";"ALES";"SAINT-PIERRE-LES-NEMOURS";"1"
"92";"ALES";"TOULON";"1.0278"
"93";"ALES";"BORDEAUX";"0.6278"
"94";"ALES";"CLERMONT-FERRAND";"0.2515"
"95";"ALES";"GRENOBLE";"0.7023"
"96";"ALES";"LILLE";"2"
"97";"ALES";"LYON";"3.5278"
"98";"ALES";"MARSEILLE-AIX";"0.3333"
"99";"ALES";"MONTPELLIER";"19.2792"
"100";"ALES";"NANTES";"1.3611"
"101";"ALES";"NICE";"1"
"102";"ALES";"PARIS";"10.0483"
"103";"ALES";"RENNES";"0.6666"
"104";"ALES";"STRASBOURG";"0.3333"
"105";"ALES";"VANDOEUVRE-LES-NANCY";"0.3333"
"106";"ANGERS";"AVIGNON";"2.3332"
"107";"ANGERS";"BEAUVAIS";"0.3333"
"108";"ANGERS";"BESANCON";"2.3667"
"109";"ANGERS";"BETHUNE";"0.9461"
"110";"ANGERS";"BREST";"1.6666"
"111";"ANGERS";"CAEN";"1.3333"
"112";"ANGERS";"CHALONS-SUR-MARNE";"1"
"113";"ANGERS";"COMPIEGNE";"1"
"114";"ANGERS";"DIJON";"0.3334"
"115";"ANGERS";"DUNKERQUE";"1"
"116";"ANGERS";"EPINAL";"0.3333"
"117";"ANGERS";"EVREUX";"0.1667"
"118";"ANGERS";"FONT-ROMEU";"0.1667"
"119";"ANGERS";"LANNION";"0.0667"
"120";"ANGERS";"LA-ROCHELLE";"1"
"121";"ANGERS";"LA-ROCHE-SUR-YON";"0.6667"
"122";"ANGERS";"LAVAL";"0.3333"
"123";"ANGERS";"LE-BOURGET-DU-LAC";"1.5"
"124";"ANGERS";"LE-MANS";"14.7334"
"125";"ANGERS";"LIMOGES";"2.5"
"126";"ANGERS";"LORIENT";"0.0128"
"127";"ANGERS";"METZ";"1.6666"
"128";"ANGERS";"MONTLUCON";"0.1667"
"129";"ANGERS";"MULHOUSE";"0.0667"
"130";"ANGERS";"NARBONNE";"0.6666"
"131";"ANGERS";"NEVERS";"2"
"132";"ANGERS";"NOUMEA";"0.3333"
"133";"ANGERS";"ORLEANS";"1.1666"
"134";"ANGERS";"PAU";"1.5333"
"135";"ANGERS";"POITIERS";"5.8334"
"136";"ANGERS";"REIMS";"0.6"
"137";"ANGERS";"ROUEN";"0.9999"
"138";"ANGERS";"SAINT-NAZAIRE";"0.3333"
"139";"ANGERS";"SAINT-PIERRE";"0.3333"
"140";"ANGERS";"THONON-LES-BAINS";"0.0667"
"141";"ANGERS";"TOURS";"0.5"
"142";"ANGERS";"WIMEREUX";"0.3333"
"143";"ANGERS";"BORDEAUX";"15.2668"
"144";"ANGERS";"CLERMONT-FERRAND";"3.5128"
"145";"ANGERS";"GRENOBLE";"4.081"
"146";"ANGERS";"LILLE";"11"
"147";"ANGERS";"LYON";"11.0332"
"148";"ANGERS";"MARSEILLE-AIX";"5.7667"
"149";"ANGERS";"MONTPELLIER";"6.4999"
"150";"ANGERS";"NANTES";"29.3333"
"151";"ANGERS";"NICE";"0.1667"
"152";"ANGERS";"PARIS";"44.7406"
"153";"ANGERS";"RENNES";"15.8999"
"154";"ANGERS";"STRASBOURG";"8.0667"
"155";"ANGERS";"TOULOUSE";"2.6476"
"156";"ANGERS";"VANDOEUVRE-LES-NANCY";"5.3333"
"157";"ANGLET";"BLOIS";"0.1667"
"158";"ANGLET";"PAU";"1.6666"
"159";"ANGLET";"VILLARCEAUX";"1"
"160";"ANGLET";"BORDEAUX";"5.6666"
"161";"ANGLET";"MARSEILLE-AIX";"0.1667"
"162";"ANGLET";"NANTES";"1"
"163";"ANGLET";"PARIS";"3.1667"
"164";"ANGLET";"RENNES";"1"
"165";"ANGLET";"TOULOUSE";"2.3334"
"166";"ANGOULEME";"DIJON";"1"
"167";"ANGOULEME";"BORDEAUX";"6.3333"
"168";"ANGOULEME";"MONTPELLIER";"0.1667"
"169";"ARCACHON";"BORDEAUX";"4.1667"
"170";"ARCACHON";"PARIS";"0.5"
"171";"ARLES";"AVIGNON";"1"
"172";"ARLES";"ROUEN";"0.1667"
"173";"ARLES";"GRENOBLE";"0.1667"
"174";"ARLES";"LYON";"0.1667"
"175";"ARLES";"MARSEILLE-AIX";"4"
"176";"ARLES";"MONTPELLIER";"0.3333"
"177";"ARLES";"PARIS";"0.6666"
"178";"AUCH";"TOULOUSE";"1"
"179";"AURILLAC";"LIMOGES";"0.3333"
"180";"AURILLAC";"LYON";"0.3333"
"181";"AUXERRE";"COMPIEGNE";"0.6666"
"182";"AUXERRE";"METZ";"0.3333"
"183";"AUXERRE";"PARIS";"0.9999"
"184";"AVIGNON";"BESANCON";"1"
"185";"AVIGNON";"BETHUNE";"0.3333"
"186";"AVIGNON";"BREST";"1"
"187";"AVIGNON";"CAEN";"1.0357"
"188";"AVIGNON";"COMPIEGNE";"0.8333"
"189";"AVIGNON";"CORTE";"1.3333"
"190";"AVIGNON";"DIGNE-LES-BAINS";"0.1"
"191";"AVIGNON";"DIJON";"6.6"
"192";"AVIGNON";"DUNKERQUE";"0.3334"
"193";"AVIGNON";"DURY-LES-AMIENS";"1.6001"
"194";"AVIGNON";"FONT-ROMEU";"2"
"195";"AVIGNON";"FREJUS";"0.1667"
"196";"AVIGNON";"LA-ROCHELLE";"1.6667"
"197";"AVIGNON";"LA-ROCHE-SUR-YON";"0.3333"
"198";"AVIGNON";"LE-BOURGET-DU-LAC";"1.9333"
"199";"AVIGNON";"LIMOGES";"11.8666"
"200";"AVIGNON";"METZ";"0.6666"
"201";"AVIGNON";"MULHOUSE";"1.369"
"202";"AVIGNON";"NARBONNE";"1.3334"
"203";"AVIGNON";"ORLEANS";"9.6357"
"204";"AVIGNON";"PAMIERS";"0.1"
"205";"AVIGNON";"PERPIGNAN";"0.5"
"206";"AVIGNON";"PIERRELATTE";"0.5"
"207";"AVIGNON";"POINTE-A-PITRE";"1"
"208";"AVIGNON";"POITIERS";"1.0357"
"209";"AVIGNON";"ROUEN";"1.3334"
"210";"AVIGNON";"SAINT-DENIS";"0.3333"
"211";"AVIGNON";"SAINT-ETIENNE";"2.1"
"212";"AVIGNON";"SAINT-PAUL-LES-DURANCE";"21.8333"
"213";"AVIGNON";"SAINT-PIERRE";"0.6666"
"214";"AVIGNON";"TOULON";"1.1667"
"215";"AVIGNON";"TOURS";"1.3333"
"216";"AVIGNON";"VALENCE";"0.1667"
"217";"AVIGNON";"VILLEFRANCHE-SUR-SAONE";"0.3333"
"218";"AVIGNON";"BORDEAUX";"11.0999"
"219";"AVIGNON";"CLERMONT-FERRAND";"10.0001"
"220";"AVIGNON";"GRENOBLE";"27.2357"
"221";"AVIGNON";"LILLE";"38.4"
"222";"AVIGNON";"LYON";"44.6334"
"223";"AVIGNON";"MARSEILLE-AIX";"16.1"
"224";"AVIGNON";"MONTPELLIER";"65.9333"
"225";"AVIGNON";"NANTES";"12.1761"
"226";"AVIGNON";"NICE";"7.6666"
"227";"AVIGNON";"PARIS";"164.458"
"228";"AVIGNON";"RENNES";"3.7"
"229";"AVIGNON";"STRASBOURG";"5.5999"
"230";"AVIGNON";"TOULOUSE";"22.8332"
"231";"AVIGNON";"VANDOEUVRE-LES-NANCY";"15.8333"
"232";"AVOINE";"PARIS";"2"
"233";"BASTIA";"CORTE";"3.3333"
"234";"BASTIA";"MONTPELLIER";"0.3333"
"235";"BEAUVAIS";"COMPIEGNE";"1"
"236";"BEAUVAIS";"DURY-LES-AMIENS";"1"
"237";"BEAUVAIS";"LA-ROCHE-SUR-YON";"0.3333"
"238";"BEAUVAIS";"LE-MANS";"0.3333"
"239";"BEAUVAIS";"CLERMONT-FERRAND";"1"
"240";"BEAUVAIS";"GRENOBLE";"1"
"241";"BEAUVAIS";"NICE";"2"
"242";"BEAUVAIS";"PARIS";"2"
"243";"BEAUVAIS";"RENNES";"1"
"244";"BESANCON";"BREST";"2.3332"
"245";"BESANCON";"BRETENIERES";"2.3332"
"246";"BESANCON";"CAEN";"2.7848"
"247";"BESANCON";"CHALONS-SUR-MARNE";"0.0182"
"248";"BESANCON";"CLUNY";"1.3334"
"249";"BESANCON";"DIJON";"26.8358"
"250";"BESANCON";"DUNKERQUE";"1"
"251";"BESANCON";"DURY-LES-AMIENS";"1"
"252";"BESANCON";"EPINAL";"0.8333"
"253";"BESANCON";"FONT-ROMEU";"0.6"
"254";"BESANCON";"LANNION";"0.1"
"255";"BESANCON";"LE-HAVRE";"1.5667"
"256";"BESANCON";"LE-MANS";"0.1182"
"257";"BESANCON";"LIMOGES";"0.1"
"258";"BESANCON";"METZ";"2"
"259";"BESANCON";"MONTBELIARD";"4.5"
"260";"BESANCON";"MULHOUSE";"20.0001"
"261";"BESANCON";"NEVERS";"0.3333"
"262";"BESANCON";"ORLEANS";"0.0667"
"263";"BESANCON";"PAU";"0.0182"
"264";"BESANCON";"POITIERS";"0.3515"
"265";"BESANCON";"REIMS";"2.4251"
"266";"BESANCON";"ROUEN";"0.0667"
"267";"BESANCON";"SAINT-ETIENNE";"0.3333"
"268";"BESANCON";"SAINT-LO";"1"
"269";"BESANCON";"TOULON";"1"
"270";"BESANCON";"TROYES";"4"
"271";"BESANCON";"ANNECY-LE-VIEUX";"1"
"272";"BESANCON";"BORDEAUX";"9.361"
"273";"BESANCON";"CLERMONT-FERRAND";"0.146"
"274";"BESANCON";"GRENOBLE";"6.4774"
"275";"BESANCON";"LILLE";"5.9334"
"276";"BESANCON";"LYON";"11.0856"
"277";"BESANCON";"MARSEILLE-AIX";"3.3001"
"278";"BESANCON";"MONTPELLIER";"10.6181"
"279";"BESANCON";"NANTES";"1.1"
"280";"BESANCON";"NICE";"0.1667"
"281";"BESANCON";"PARIS";"34.5043"
"282";"BESANCON";"RENNES";"10.9"
"283";"BESANCON";"STRASBOURG";"5.3666"
"284";"BESANCON";"TOULOUSE";"4.6944"
"285";"BESANCON";"VANDOEUVRE-LES-NANCY";"8.4477"
"286";"BETHUNE";"DIJON";"1.2667"
"287";"BETHUNE";"DUNKERQUE";"0.1667"
"288";"BETHUNE";"DURY-LES-AMIENS";"3.3332"
"289";"BETHUNE";"EPINAL";"0.2667"
"290";"BETHUNE";"LIBOURNE";"0.1667"
"291";"BETHUNE";"LIMOGES";"0.1667"
"292";"BETHUNE";"LORIENT";"0.0128"
"293";"BETHUNE";"METZ";"0.1667"
"294";"BETHUNE";"MULHOUSE";"4"
"295";"BETHUNE";"ORLEANS";"0.4333"
"296";"BETHUNE";"PERONNE";"0.3333"
"297";"BETHUNE";"ROUEN";"0.8333"
"298";"BETHUNE";"SAINT-ETIENNE";"1"
"299";"BETHUNE";"SAINT-NAZAIRE";"0.3333"
"300";"BETHUNE";"SAINT-PIERRE-LES-NEMOURS";"0.6666"
"301";"BETHUNE";"WIMEREUX";"0.1667"
"302";"BETHUNE";"BORDEAUX";"0.6667"
"303";"BETHUNE";"CLERMONT-FERRAND";"0.0128"
"304";"BETHUNE";"GRENOBLE";"9.3666"
"305";"BETHUNE";"LILLE";"29.9334"
"306";"BETHUNE";"LYON";"11.7333"
"307";"BETHUNE";"MARSEILLE-AIX";"0.1"
"308";"BETHUNE";"NANTES";"0.3333"
"309";"BETHUNE";"NICE";"0.9999"
"310";"BETHUNE";"PARIS";"8.0795"
"311";"BETHUNE";"RENNES";"0.0667"
"312";"BETHUNE";"TOULOUSE";"1.8332"
"313";"BLOIS";"CAEN";"2"
"314";"BLOIS";"DUNKERQUE";"0.1"
"315";"BLOIS";"LE-HAVRE";"0.3333"
"316";"BLOIS";"LE-MANS";"2.5667"
"317";"BLOIS";"LORIENT";"2.3333"
"318";"BLOIS";"ORLEANS";"5.9"
"319";"BLOIS";"ROUEN";"1"
"320";"BLOIS";"TOURS";"6.0001"
"321";"BLOIS";"BORDEAUX";"0.1667"
"322";"BLOIS";"GRENOBLE";"0.4"
"323";"BLOIS";"LILLE";"2"
"324";"BLOIS";"LYON";"0.3333"
"325";"BLOIS";"MONTPELLIER";"1.3333"
"326";"BLOIS";"PARIS";"4.9334"
"327";"BLOIS";"TOULOUSE";"0.1667"
"328";"BLOIS";"VANDOEUVRE-LES-NANCY";"0.3333"
"329";"BORDES-DE-RIVIERE";"LE-HAVRE";"0.3333"
"330";"BORDES-DE-RIVIERE";"PAMIERS";"0.1667"
"331";"BORDES-DE-RIVIERE";"PAU";"4.3333"
"332";"BORDES-DE-RIVIERE";"POITIERS";"5"
"333";"BORDES-DE-RIVIERE";"CLERMONT-FERRAND";"0.1667"
"334";"BORDES-DE-RIVIERE";"GRENOBLE";"0.3333"
"335";"BORDES-DE-RIVIERE";"PARIS";"1.8333"
"336";"BORDES-DE-RIVIERE";"TOULOUSE";"3"
"337";"BOURG-EN-BRESSE";"DIJON";"1.1667"
"338";"BOURG-EN-BRESSE";"LAVAL";"0.5"
"339";"BOURG-EN-BRESSE";"LE-BOURGET-DU-LAC";"0.3333"
"340";"BOURG-EN-BRESSE";"METZ";"1"
"341";"BOURG-EN-BRESSE";"REIMS";"2.4999"
"342";"BOURG-EN-BRESSE";"SAINT-ETIENNE";"0.1667"
"343";"BOURG-EN-BRESSE";"SAINT-PAUL-LES-DURANCE";"0.3334"
"344";"BOURG-EN-BRESSE";"ANNECY-LE-VIEUX";"0.3333"
"345";"BOURG-EN-BRESSE";"CLERMONT-FERRAND";"0.1667"
"346";"BOURG-EN-BRESSE";"GRENOBLE";"1.3333"
"347";"BOURG-EN-BRESSE";"LILLE";"0.1667"
"348";"BOURG-EN-BRESSE";"LYON";"6"
"349";"BOURG-EN-BRESSE";"NANTES";"3.1667"
"350";"BOURG-EN-BRESSE";"NICE";"1"
"351";"BOURG-EN-BRESSE";"PARIS";"1.5"
"352";"BOURG-EN-BRESSE";"TOULOUSE";"0.1667"
"353";"BOURG-EN-BRESSE";"VANDOEUVRE-LES-NANCY";"1"
"354";"BOURGES";"CAEN";"0.6666"
"355";"BOURGES";"DIJON";"1.1667"
"356";"BOURGES";"FOUGERES";"0.0278"
"357";"BOURGES";"LORIENT";"1"
"358";"BOURGES";"METZ";"1"
"359";"BOURGES";"ORLEANS";"0.9612"
"360";"BOURGES";"POITIERS";"0.8333"
"361";"BOURGES";"REIMS";"2"
"362";"BOURGES";"SAINT-ETIENNE";"1.6666"
"363";"BOURGES";"TOURS";"0.6666"
"364";"BOURGES";"VILLARCEAUX";"0.3612"
"365";"BOURGES";"BORDEAUX";"0.0278"
"366";"BOURGES";"LILLE";"1.1"
"367";"BOURGES";"LYON";"2"
"368";"BOURGES";"NANTES";"1"
"369";"BOURGES";"NICE";"0.0278"
"370";"BOURGES";"PARIS";"8.2944"
"371";"BOURGES";"TOULOUSE";"1.3333"
"372";"BOURGES";"VANDOEUVRE-LES-NANCY";"1"
"373";"BOURGOIN-JALLIEU";"LE-BOURGET-DU-LAC";"1.1666"
"374";"BOURGOIN-JALLIEU";"LORIENT";"0.3333"
"375";"BOURGOIN-JALLIEU";"MULHOUSE";"0.3333"
"376";"BOURGOIN-JALLIEU";"ROUEN";"1"
"377";"BOURGOIN-JALLIEU";"VILLEFRANCHE-SUR-SAONE";"0.1667"
"378";"BOURGOIN-JALLIEU";"CLERMONT-FERRAND";"1"
"379";"BOURGOIN-JALLIEU";"GRENOBLE";"1"
"380";"BOURGOIN-JALLIEU";"LYON";"3.5"
"381";"BOURGOIN-JALLIEU";"MONTPELLIER";"0.6666"
"382";"BOURGOIN-JALLIEU";"RENNES";"0.3333"
"383";"BOURGOIN-JALLIEU";"STRASBOURG";"1"
"384";"BREST";"BRETENIERES";"1"
"385";"BREST";"CAEN";"17.1666"
"386";"BREST";"CHALONS-SUR-MARNE";"0.0357"
"387";"BREST";"CHOLET";"1"
"388";"BREST";"DIEPPE";"0.1667"
"389";"BREST";"DIJON";"0.9999"
"390";"BREST";"DUNKERQUE";"0.1667"
"391";"BREST";"EPINAL";"1.3333"
"392";"BREST";"EVREUX";"0.1667"
"393";"BREST";"LANNION";"6.7333"
"394";"BREST";"LE-CREUSOT";"0.0667"
"395";"BREST";"LE-HAVRE";"0.1"
"396";"BREST";"LE-MANS";"1.7023"
"397";"BREST";"LORIENT";"29.8809"
"398";"BREST";"METZ";"8.3332"
"399";"BREST";"MULHOUSE";"4.6"
"400";"BREST";"NOUMEA";"0.3333"
"401";"BREST";"ORLEANS";"6.6666"
"402";"BREST";"PAPEETE";"0.9999"
"403";"BREST";"PAU";"3"
"404";"BREST";"PERPIGNAN";"0.6"
"405";"BREST";"PLOUFRAGAN";"1.7667"
"406";"BREST";"POITIERS";"5.1023"
"407";"BREST";"REIMS";"1.3333"
"408";"BREST";"ROUEN";"2.3333"
"409";"BREST";"SAINT-ETIENNE";"0.5357"
"410";"BREST";"SAINT-LO";"0.1667"
"411";"BREST";"SAINT-NAZAIRE";"0.4333"
"412";"BREST";"TOULON";"2.9999"
"413";"BREST";"TOURS";"2.3333"
"414";"BREST";"TROYES";"0.3333"
"415";"BREST";"VANNES";"2.5"
"416";"BREST";"BORDEAUX";"2.3144"
"417";"BREST";"CLERMONT-FERRAND";"0.869"
"418";"BREST";"GRENOBLE";"7.6"
"419";"BREST";"LILLE";"1.7667"
"420";"BREST";"LYON";"3.5"
"421";"BREST";"MARSEILLE-AIX";"2.5667"
"422";"BREST";"MONTPELLIER";"0.6666"
"423";"BREST";"NANTES";"13.7001"
"424";"BREST";"NICE";"1.8333"
"425";"BREST";"PARIS";"65.0309"
"426";"BREST";"RENNES";"33.5666"
"427";"BREST";"STRASBOURG";"2.9333"
"428";"BREST";"TOULOUSE";"9.5476"
"429";"BREST";"VANDOEUVRE-LES-NANCY";"1.3333"
"430";"BRETENIERES";"DIJON";"0.1667"
"431";"BRETENIERES";"SAINT-NAZAIRE";"0.3333"
"432";"BRETENIERES";"LYON";"0.6666"
"433";"BRETENIERES";"MONTPELLIER";"0.7667"
"434";"BRETENIERES";"NANTES";"0.3333"
"435";"BRETENIERES";"PARIS";"1"
"436";"BRIVE";"LIMOGES";"0.3333"
"437";"BRIVE";"BORDEAUX";"0.3333"
"438";"BRIVE";"LILLE";"0.3333"
"439";"BRIVE";"PARIS";"1.3333"
"440";"BURE";"CLUNY";"1"
"441";"BURE";"LA-ROCHELLE";"0.3333"
"442";"BURE";"ORLEANS";"1.1"
"443";"BURE";"GRENOBLE";"0.1"
"444";"BURE";"NANTES";"1"
"445";"BURE";"PARIS";"1.6"
"446";"BURE";"VANDOEUVRE-LES-NANCY";"1.2667"
"447";"CAEN";"CHALONS-SUR-MARNE";"0.0182"
"448";"CAEN";"CHERBOURG";"3.6666"
"449";"CAEN";"CLUNY";"0.6666"
"450";"CAEN";"COMPIEGNE";"3.9999"
"451";"CAEN";"DIJON";"0.9477"
"452";"CAEN";"DURY-LES-AMIENS";"2.2666"
"453";"CAEN";"EVREUX";"4.6666"
"454";"CAEN";"FLERS";"2"
"455";"CAEN";"LAIGLE";"1"
"456";"CAEN";"LANNION";"1.0667"
"457";"CAEN";"LA-ROCHELLE";"4.8333"
"458";"CAEN";"LE-CREUSOT";"0.3333"
"459";"CAEN";"LE-HAVRE";"8.8334"
"460";"CAEN";"LE-MANS";"4.9015"
"461";"CAEN";"LIMOGES";"7.2667"
"462";"CAEN";"LORIENT";"0.6667"
"463";"CAEN";"METZ";"0.5"
"464";"CAEN";"MULHOUSE";"3.4936"
"465";"CAEN";"ORLEANS";"6.1357"
"466";"CAEN";"PAU";"1.1848"
"467";"CAEN";"PERPIGNAN";"0.1667"
"468";"CAEN";"POITIERS";"5.5538"
"469";"CAEN";"REIMS";"0.3333"
"470";"CAEN";"ROUEN";"54.7556"
"471";"CAEN";"SAINT-ETIENNE";"21"
"472";"CAEN";"SAINT-MALO";"0.5"
"473";"CAEN";"SAINT-NAZAIRE";"0.3334"
"474";"CAEN";"SAINT-PAUL-LES-DURANCE";"0.2667"
"475";"CAEN";"THONON-LES-BAINS";"0.1667"
"476";"CAEN";"TOURS";"1.3332"
"477";"CAEN";"TROYES";"0.3333"
"478";"CAEN";"VANNES";"1"
"479";"CAEN";"VILLAINES-LA-JUHEL";"1.8332"
"480";"CAEN";"BORDEAUX";"7.9001"
"481";"CAEN";"CLERMONT-FERRAND";"1.4881"
"482";"CAEN";"GRENOBLE";"15.6453"
"483";"CAEN";"LILLE";"19.7244"
"484";"CAEN";"LYON";"24.3864"
"485";"CAEN";"MARSEILLE-AIX";"10.0318"
"486";"CAEN";"MONTPELLIER";"15.7333"
"487";"CAEN";"NANTES";"3.6666"
"488";"CAEN";"NICE";"0.2667"
"489";"CAEN";"PARIS";"92.7118"
"490";"CAEN";"RENNES";"29.2055"
"491";"CAEN";"STRASBOURG";"8.9024"
"492";"CAEN";"TOULOUSE";"8.5357"
"493";"CAEN";"VANDOEUVRE-LES-NANCY";"3.7667"
"494";"CAHORS";"LYON";"1"
"495";"CAHORS";"TOULOUSE";"0.3333"
"496";"CALVI";"LILLE";"0.3333"
"497";"CALVI";"PARIS";"0.3333"
"498";"CARCASSONNE";"LIMOGES";"1"
"499";"CHALONS-SUR-MARNE";"COMPIEGNE";"0.6667"
"500";"CHALONS-SUR-MARNE";"EPINAL";"2.6666"
"501";"CHALONS-SUR-MARNE";"LE-MANS";"0.0539"
"502";"CHALONS-SUR-MARNE";"METZ";"2.9999"
"503";"CHALONS-SUR-MARNE";"PAU";"0.0182"
"504";"CHALONS-SUR-MARNE";"POITIERS";"1.0539"
"505";"CHALONS-SUR-MARNE";"ROUEN";"0.0667"
"506";"CHALONS-SUR-MARNE";"SAINT-ETIENNE";"0.8024"
"507";"CHALONS-SUR-MARNE";"BORDEAUX";"1"
"508";"CHALONS-SUR-MARNE";"CLERMONT-FERRAND";"1.7873"
"509";"CHALONS-SUR-MARNE";"LILLE";"1"
"510";"CHALONS-SUR-MARNE";"LYON";"5.6666"
"511";"CHALONS-SUR-MARNE";"MARSEILLE-AIX";"5"
"512";"CHALONS-SUR-MARNE";"MONTPELLIER";"0.0849"
"513";"CHALONS-SUR-MARNE";"PARIS";"7.1205"
"514";"CHALONS-SUR-MARNE";"TOULOUSE";"0.3333"
"515";"CHARLEVILLE-MEZIERES";"COMPIEGNE";"0.1"
"516";"CHARLEVILLE-MEZIERES";"REIMS";"1.6666"
"517";"CHARLEVILLE-MEZIERES";"TOURS";"0.1"
"518";"CHARLEVILLE-MEZIERES";"TROYES";"0.6"
"519";"CHARLEVILLE-MEZIERES";"LYON";"2"
"520";"CHARLEVILLE-MEZIERES";"MONTPELLIER";"0.1667"
"521";"CHARLEVILLE-MEZIERES";"PARIS";"0.3333"
"522";"CHARLEVILLE-MEZIERES";"STRASBOURG";"0.1"
"523";"CHASSENEUIL";"LE-HAVRE";"1"
"524";"CHASSENEUIL";"ROUEN";"1"
"525";"CHASSENEUIL";"SAINT-NAZAIRE";"1"
"526";"CHASSENEUIL";"SAINT-PAUL-LES-DURANCE";"0.3333"
"527";"CHASSENEUIL";"BORDEAUX";"0.1"
"528";"CHASSENEUIL";"GRENOBLE";"0.4333"
"529";"CHASSENEUIL";"LYON";"0.3333"
"530";"CHASSENEUIL";"PARIS";"1"
"531";"CHASSENEUIL";"TOULOUSE";"0.3333"
"532";"CHASSENEUIL";"VANDOEUVRE-LES-NANCY";"0.1"
"533";"CHATEAUBRIANT";"SAINT-PAUL-LES-DURANCE";"0.3333"
"534";"CHATEAUBRIANT";"MONTPELLIER";"0.3333"
"535";"CHATEAU-THIERRY";"PARIS";"0.3333"
"536";"CHAUMONT";"NICE";"0.3333"
"537";"CHERBOURG";"LA-ROCHELLE";"0.1667"
"538";"CHERBOURG";"LE-HAVRE";"1.6666"
"539";"CHERBOURG";"ROUEN";"0.1667"
"540";"CHERBOURG";"SAINT-PAUL-LES-DURANCE";"0.9999"
"541";"CHERBOURG";"GRENOBLE";"0.3333"
"542";"CHERBOURG";"LILLE";"0.6666"
"543";"CHERBOURG";"MARSEILLE-AIX";"0.3333"
"544";"CHERBOURG";"NANTES";"0.3333"
"545";"CHERBOURG";"PARIS";"0.9999"
"546";"CHERBOURG";"TOULOUSE";"0.3333"
"547";"CHOLET";"PAU";"1"
"548";"CLUNY";"DIJON";"1"
"549";"CLUNY";"LE-PUY-EN-VELAY";"1"
"550";"CLUNY";"LIMOGES";"0.3334"
"551";"CLUNY";"MONTBELIARD";"0.1667"
"552";"CLUNY";"MONT-DE-MARSAN";"0.3333"
"553";"CLUNY";"ORLEANS";"0.3333"
"554";"CLUNY";"PAU";"1.5"
"555";"CLUNY";"BORDEAUX";"0.6666"
"556";"CLUNY";"LILLE";"0.6667"
"557";"CLUNY";"LYON";"3.6666"
"558";"CLUNY";"NANTES";"1.5"
"559";"CLUNY";"PARIS";"0.3333"
"560";"CLUNY";"STRASBOURG";"0.1667"
"561";"CLUNY";"VANDOEUVRE-LES-NANCY";"0.5"
"562";"COMPIEGNE";"DIJON";"0.3333"
"563";"COMPIEGNE";"DUNKERQUE";"0.5"
"564";"COMPIEGNE";"DURY-LES-AMIENS";"18.3333"
"565";"COMPIEGNE";"EPINAL";"3.6667"
"566";"COMPIEGNE";"LA-ROCHELLE";"8.1668"
"567";"COMPIEGNE";"LAVAL";"3"
"568";"COMPIEGNE";"LE-HAVRE";"0.3333"
"569";"COMPIEGNE";"LE-MANS";"5.3333"
"570";"COMPIEGNE";"LE-PUY-EN-VELAY";"2.3333"
"571";"COMPIEGNE";"LORIENT";"0.8333"
"572";"COMPIEGNE";"METZ";"4.981"
"573";"COMPIEGNE";"MULHOUSE";"6.4333"
"574";"COMPIEGNE";"ORLEANS";"3.3611"
"575";"COMPIEGNE";"PAU";"1.7667"
"576";"COMPIEGNE";"POITIERS";"4.1666"
"577";"COMPIEGNE";"PONTIVY";"3.3333"
"578";"COMPIEGNE";"REIMS";"7.3809"
"579";"COMPIEGNE";"ROUEN";"2.1666"
"580";"COMPIEGNE";"SAINT-ETIENNE";"1.6666"
"581";"COMPIEGNE";"SAINT-PAUL-LES-DURANCE";"0.1667"
"582";"COMPIEGNE";"TOULON";"0.0278"
"583";"COMPIEGNE";"TOURS";"0.7666"
"584";"COMPIEGNE";"TROYES";"2.7666"
"585";"COMPIEGNE";"VANNES";"0.1"
"586";"COMPIEGNE";"BORDEAUX";"5.2945"
"587";"COMPIEGNE";"CLERMONT-FERRAND";"0.3333"
"588";"COMPIEGNE";"GRENOBLE";"3.1475"
"589";"COMPIEGNE";"LILLE";"13.2666"
"590";"COMPIEGNE";"LYON";"15.515"
"591";"COMPIEGNE";"MARSEILLE-AIX";"2.5333"
"592";"COMPIEGNE";"MONTPELLIER";"3.1946"
"593";"COMPIEGNE";"NANTES";"4.5754"
"594";"COMPIEGNE";"PARIS";"64.5458"
"595";"COMPIEGNE";"RENNES";"8.5333"
"596";"COMPIEGNE";"STRASBOURG";"0.2667"
"597";"COMPIEGNE";"TOULOUSE";"10.4334"
"598";"COMPIEGNE";"VANDOEUVRE-LES-NANCY";"4.2667"
"599";"CORTE";"ORLEANS";"2"
"600";"CORTE";"BORDEAUX";"1.3333"
"601";"CORTE";"LILLE";"0.1667"
"602";"CORTE";"MARSEILLE-AIX";"2"
"603";"CORTE";"MONTPELLIER";"3.6666"
"604";"CORTE";"NICE";"1.3333"
"605";"CORTE";"VANDOEUVRE-LES-NANCY";"1"
"606";"DAX";"ORLEANS";"0.1667"
"607";"DAX";"PAU";"0.5"
"608";"DAX";"BORDEAUX";"1"
"609";"DAX";"MONTPELLIER";"0.1667"
"610";"DIEPPE";"EVREUX";"0.8333"
"611";"DIEPPE";"METZ";"0.1667"
"612";"DIEPPE";"MARSEILLE-AIX";"0.1667"
"613";"DIEPPE";"NICE";"1.1666"
"614";"DIEPPE";"PARIS";"1.1667"
"615";"DIGNE-LES-BAINS";"LYON";"0.2667"
"616";"DIGNE-LES-BAINS";"MONTPELLIER";"0.1667"
"617";"DIGNE-LES-BAINS";"PARIS";"10.7666"
"618";"DIJON";"DURY-LES-AMIENS";"0.1667"
"619";"DIJON";"EPINAL";"0.6"
"620";"DIJON";"FORT-DE-FRANCE";"0.1667"
"621";"DIJON";"LA-MONTAGNE";"0.1667"
"622";"DIJON";"LANNION";"0.3334"
"623";"DIJON";"LA-ROCHELLE";"0.3333"
"624";"DIJON";"LE-CREUSOT";"9.3333"
"625";"DIJON";"LE-HAVRE";"0.9"
"626";"DIJON";"LE-MANS";"1.3475"
"627";"DIJON";"LE-PUY-EN-VELAY";"1.3333"
"628";"DIJON";"LIMOGES";"1"
"629";"DIJON";"METZ";"5.7333"
"630";"DIJON";"MONTBELIARD";"0.3334"
"631";"DIJON";"MONTLUCON";"1"
"632";"DIJON";"MONTOLDRE";"0.1667"
"633";"DIJON";"MULHOUSE";"15.6"
"634";"DIJON";"NEVERS";"0.3333"
"635";"DIJON";"NOUMEA";"0.3333"
"636";"DIJON";"ORLEANS";"1"
"637";"DIJON";"PAMIERS";"1.3333"
"638";"DIJON";"PAU";"1"
"639";"DIJON";"POINTE-A-PITRE";"0.3334"
"640";"DIJON";"POITIERS";"3.5"
"641";"DIJON";"REIMS";"2.8691"
"642";"DIJON";"ROUEN";"2.5"
"643";"DIJON";"SAINT-ETIENNE";"8.2667"
"644";"DIJON";"SAINT-PAUL-LES-DURANCE";"1.6"
"645";"DIJON";"SAINT-PIERRE-LES-NEMOURS";"0.3333"
"646";"DIJON";"TOULON";"2.8333"
"647";"DIJON";"TOURS";"0.1667"
"648";"DIJON";"TROYES";"4.1"
"649";"DIJON";"BORDEAUX";"8.1666"
"650";"DIJON";"CLERMONT-FERRAND";"9.2849"
"651";"DIJON";"GRENOBLE";"22.2715"
"652";"DIJON";"LILLE";"3.6"
"653";"DIJON";"LYON";"21.7358"
"654";"DIJON";"MARSEILLE-AIX";"1.8667"
"655";"DIJON";"MONTPELLIER";"14.5"
"656";"DIJON";"NANTES";"6.7667"
"657";"DIJON";"NICE";"1.6666"
"658";"DIJON";"PARIS";"94.8016"
"659";"DIJON";"RENNES";"12.881"
"660";"DIJON";"STRASBOURG";"15.1001"
"661";"DIJON";"TOULOUSE";"17.7667"
"662";"DIJON";"VANDOEUVRE-LES-NANCY";"16.5999"
"663";"DUNKERQUE";"DURY-LES-AMIENS";"0.5"
"664";"DUNKERQUE";"MULHOUSE";"0.3333"
"665";"DUNKERQUE";"ORLEANS";"0.9333"
"666";"DUNKERQUE";"PLOUFRAGAN";"1.5"
"667";"DUNKERQUE";"REIMS";"2"
"668";"DUNKERQUE";"SAINT-ETIENNE";"0.3333"
"669";"DUNKERQUE";"TOURS";"1"
"670";"DUNKERQUE";"WIMEREUX";"0.3333"
"671";"DUNKERQUE";"BORDEAUX";"1.9333"
"672";"DUNKERQUE";"GRENOBLE";"0.7667"
"673";"DUNKERQUE";"LILLE";"66.0667"
"674";"DUNKERQUE";"LYON";"0.3"
"675";"DUNKERQUE";"NANTES";"0.1667"
"676";"DUNKERQUE";"NICE";"1.3333"
"677";"DUNKERQUE";"PARIS";"5.5667"
"678";"DUNKERQUE";"RENNES";"4.3334"
"679";"DUNKERQUE";"STRASBOURG";"0.5"
"680";"DUNKERQUE";"TOULOUSE";"0.3333"
"681";"DURY-LES-AMIENS";"LANNION";"0.1"
"682";"DURY-LES-AMIENS";"LA-ROCHELLE";"0.6667"
"683";"DURY-LES-AMIENS";"LE-MANS";"0.6667"
"684";"DURY-LES-AMIENS";"LIMOGES";"0.3333"
"685";"DURY-LES-AMIENS";"METZ";"2.3333"
"686";"DURY-LES-AMIENS";"MULHOUSE";"1.6667"
"687";"DURY-LES-AMIENS";"ORLEANS";"2.2666"
"688";"DURY-LES-AMIENS";"PAU";"1.6477"
"689";"DURY-LES-AMIENS";"PERPIGNAN";"0.1667"
"690";"DURY-LES-AMIENS";"POITIERS";"2"
"691";"DURY-LES-AMIENS";"REIMS";"3.1667"
"692";"DURY-LES-AMIENS";"ROUEN";"0.7667"
"693";"DURY-LES-AMIENS";"SAINT-ETIENNE";"0.3333"
"694";"DURY-LES-AMIENS";"TOULON";"1.1666"
"695";"DURY-LES-AMIENS";"TOURS";"0.9333"
"696";"DURY-LES-AMIENS";"VILLARCEAUX";"2.6666"
"697";"DURY-LES-AMIENS";"BORDEAUX";"19.2691"
"698";"DURY-LES-AMIENS";"CLERMONT-FERRAND";"8.9999"
"699";"DURY-LES-AMIENS";"GRENOBLE";"6.1"
"700";"DURY-LES-AMIENS";"LILLE";"18.2166"
"701";"DURY-LES-AMIENS";"LYON";"7"
"702";"DURY-LES-AMIENS";"MARSEILLE-AIX";"4.2666"
"703";"DURY-LES-AMIENS";"MONTPELLIER";"12.381"
"704";"DURY-LES-AMIENS";"NANTES";"9.0356"
"705";"DURY-LES-AMIENS";"NICE";"0.6666"
"706";"DURY-LES-AMIENS";"PARIS";"100.7263"
"707";"DURY-LES-AMIENS";"RENNES";"14.9333"
"708";"DURY-LES-AMIENS";"STRASBOURG";"0.0667"
"709";"DURY-LES-AMIENS";"TOULOUSE";"17.0332"
"710";"DURY-LES-AMIENS";"VANDOEUVRE-LES-NANCY";"2.3333"
"711";"EGLETONS";"LIMOGES";"6"
"712";"EGLETONS";"POITIERS";"1"
"713";"EGLETONS";"BORDEAUX";"1.3333"
"714";"EGLETONS";"CLERMONT-FERRAND";"4"
"715";"EGLETONS";"MONTPELLIER";"1"
"716";"EGLETONS";"NANTES";"2.3333"
"717";"EGLETONS";"RENNES";"0.3333"
"718";"EGLETONS";"STRASBOURG";"0.3333"
"719";"EPINAL";"EVREUX";"1"
"720";"EPINAL";"LAIGLE";"0.1"
"721";"EPINAL";"METZ";"4.3332"
"722";"EPINAL";"MONT-DE-MARSAN";"1.4334"
"723";"EPINAL";"MULHOUSE";"10.3667"
"724";"EPINAL";"PAU";"1.9333"
"725";"EPINAL";"PERPIGNAN";"1"
"726";"EPINAL";"SAINT-ETIENNE";"0.3333"
"727";"EPINAL";"SELESTAT";"0.1"
"728";"EPINAL";"TROYES";"0.1"
"729";"EPINAL";"BORDEAUX";"0.3333"
"730";"EPINAL";"CLERMONT-FERRAND";"2"
"731";"EPINAL";"GRENOBLE";"2.1334"
"732";"EPINAL";"LYON";"1"
"733";"EPINAL";"MONTPELLIER";"5.1667"
"734";"EPINAL";"PARIS";"5.1667"
"735";"EPINAL";"STRASBOURG";"0.3333"
"736";"EPINAL";"TOULOUSE";"0.6"
"737";"EPINAL";"VANDOEUVRE-LES-NANCY";"23.5332"
"738";"EVREUX";"LE-HAVRE";"0.1667"
"739";"EVREUX";"LORIENT";"2"
"740";"EVREUX";"MONT-DE-MARSAN";"0.3333"
"741";"EVREUX";"PAU";"0.8334"
"742";"EVREUX";"POITIERS";"2.3333"
"743";"EVREUX";"ROUEN";"13.8333"
"744";"EVREUX";"SAINT-ETIENNE";"5.3332"
"745";"EVREUX";"SAINT-GIRONS";"0.3333"
"746";"EVREUX";"GRENOBLE";"1"
"747";"EVREUX";"LILLE";"0.6666"
"748";"EVREUX";"LYON";"7.1667"
"749";"EVREUX";"MARSEILLE-AIX";"0.5"
"750";"EVREUX";"MONTPELLIER";"0.5"
"751";"EVREUX";"NANTES";"0.3333"
"752";"EVREUX";"NICE";"5.8333"
"753";"EVREUX";"PARIS";"8.1666"
"754";"EVREUX";"RENNES";"0.1667"
"755";"EVREUX";"STRASBOURG";"1.6"
"756";"EVREUX";"VANDOEUVRE-LES-NANCY";"1.6"
"757";"FLERS";"PARIS";"1"
"758";"FLORAC";"BORDEAUX";"1"
"759";"FLORAC";"PARIS";"1"
"760";"FONT-ROMEU";"LE-MANS";"0.1667"
"761";"FONT-ROMEU";"LIMOGES";"1.6666"
"762";"FONT-ROMEU";"MONTLUCON";"0.1667"
"763";"FONT-ROMEU";"MULHOUSE";"0.3333"
"764";"FONT-ROMEU";"ORLEANS";"1"
"765";"FONT-ROMEU";"PERPIGNAN";"5.9999"
"766";"FONT-ROMEU";"PIERRELATTE";"0.1667"
"767";"FONT-ROMEU";"RODEZ";"0.3333"
"768";"FONT-ROMEU";"SAINT-ETIENNE";"0.6666"
"769";"FONT-ROMEU";"SAINT-PAUL-LES-DURANCE";"5.2333"
"770";"FONT-ROMEU";"BORDEAUX";"0.3333"
"771";"FONT-ROMEU";"CLERMONT-FERRAND";"1.3333"
"772";"FONT-ROMEU";"LYON";"1"
"773";"FONT-ROMEU";"MARSEILLE-AIX";"1.2334"
"774";"FONT-ROMEU";"MONTPELLIER";"3.7666"
"775";"FONT-ROMEU";"NANTES";"0.1667"
"776";"FONT-ROMEU";"NICE";"1"
"777";"FONT-ROMEU";"PARIS";"0.7334"
"778";"FONT-ROMEU";"RENNES";"0.1667"
"779";"FONT-ROMEU";"TOULOUSE";"0.6"
"780";"FONT-ROMEU";"VANDOEUVRE-LES-NANCY";"0.1"
"781";"FORT-DE-FRANCE";"NOUMEA";"0.1667"
"782";"FORT-DE-FRANCE";"POINTE-A-PITRE";"0.1667"
"783";"FORT-DE-FRANCE";"TOULON";"0.1667"
"784";"FORT-DE-FRANCE";"MARSEILLE-AIX";"0.3334"
"785";"FORT-DE-FRANCE";"MONTPELLIER";"5.1667"
"786";"FORT-DE-FRANCE";"TOULOUSE";"0.3334"
"787";"FORT-DE-FRANCE";"VANDOEUVRE-LES-NANCY";"0.1667"
"788";"FOUGERES";"LANNION";"0.1667"
"789";"FOUGERES";"LORIENT";"0.3333"
"790";"FOUGERES";"ORLEANS";"0.0992"
"791";"FOUGERES";"QUIMPER";"0.3333"
"792";"FOUGERES";"ROUEN";"0.3333"
"793";"FOUGERES";"SAINT-DENIS";"0.3333"
"794";"FOUGERES";"VILLARCEAUX";"0.0992"
"795";"FOUGERES";"BORDEAUX";"0.2992"
"796";"FOUGERES";"MONTPELLIER";"0.5333"
"797";"FOUGERES";"NANTES";"0.1667"
"798";"FOUGERES";"NICE";"0.0992"
"799";"FOUGERES";"PARIS";"1.7992"
"800";"FOUGERES";"RENNES";"0.6667"
"801";"FOUGERES";"TOULOUSE";"1.2"
"802";"FREJUS";"LA-ROCHELLE";"0.1"
"803";"FREJUS";"METZ";"0.3333"
"804";"FREJUS";"MULHOUSE";"0.1"
"805";"FREJUS";"MARSEILLE-AIX";"0.2667"
"806";"FREJUS";"NANTES";"0.2"
"807";"FREJUS";"NICE";"0.3333"
"808";"FREJUS";"PARIS";"0.3667"
"809";"GRAMAT";"MULHOUSE";"1"
"810";"GRAMAT";"ORLEANS";"1"
"811";"GRAMAT";"POITIERS";"1"
"812";"GRAMAT";"GRENOBLE";"2"
"813";"GRAMAT";"LYON";"0.3333"
"814";"GRAMAT";"MARSEILLE-AIX";"0.3333"
"815";"GRAMAT";"PARIS";"1.3333"
"816";"GUADELOUPE";"RODEZ";"0.3333"
"817";"GUADELOUPE";"GRENOBLE";"2"
"818";"GUADELOUPE";"LYON";"1.3333"
"819";"LAIGLE";"TROYES";"0.1"
"820";"LAIGLE";"NANTES";"1"
"821";"LAIGLE";"PARIS";"0.1"
"822";"LAIGLE";"TOULOUSE";"0.1"
"823";"LA-MONTAGNE";"TOULON";"0.3333"
"824";"LA-MONTAGNE";"CLERMONT-FERRAND";"0.1667"
"825";"LA-MONTAGNE";"NANTES";"0.3333"
"826";"LA-MONTAGNE";"PARIS";"1.1667"
"827";"LANNION";"LA-ROCHELLE";"0.1667"
"828";"LANNION";"LE-MANS";"1.7334"
"829";"LANNION";"LORIENT";"0.5"
"830";"LANNION";"MULHOUSE";"8.7"
"831";"LANNION";"ORLEANS";"2.8666"
"832";"LANNION";"PERPIGNAN";"0.1"
"833";"LANNION";"REIMS";"0.1"
"834";"LANNION";"ROUEN";"4.3333"
"835";"LANNION";"SAINT-ETIENNE";"0.5"
"836";"LANNION";"SAINT-LO";"2.8333"
"837";"LANNION";"SAINT-NAZAIRE";"0.1"
"838";"LANNION";"VILLARCEAUX";"0.3333"
"839";"LANNION";"BORDEAUX";"0.5"
"840";"LANNION";"CLERMONT-FERRAND";"1.3333"
"841";"LANNION";"GRENOBLE";"2.2667"
"842";"LANNION";"LILLE";"2.3"
"843";"LANNION";"LYON";"2"
"844";"LANNION";"MARSEILLE-AIX";"1.3333"
"845";"LANNION";"MONTPELLIER";"1.1666"
"846";"LANNION";"NANTES";"5.1"
"847";"LANNION";"NICE";"0.3333"
"848";"LANNION";"PARIS";"15.3332"
"849";"LANNION";"RENNES";"18.7"
"850";"LANNION";"STRASBOURG";"2.4334"
"851";"LAON";"LYON";"2"
"852";"LA-ROCHELLE";"LE-HAVRE";"1.6666"
"853";"LA-ROCHELLE";"LIMOGES";"0.0476"
"854";"LA-ROCHELLE";"LORIENT";"1.5278"
"855";"LA-ROCHELLE";"METZ";"0.7666"
"856";"LA-ROCHELLE";"MONTBELIARD";"2"
"857";"LA-ROCHELLE";"MULHOUSE";"1.8666"
"858";"LA-ROCHELLE";"ORLEANS";"1"
"859";"LA-ROCHELLE";"PAU";"0.3334"
"860";"LA-ROCHELLE";"POITIERS";"4.2143"
"861";"LA-ROCHELLE";"QUIMPER";"0.0278"
"862";"LA-ROCHELLE";"ROUEN";"2.3334"
"863";"LA-ROCHELLE";"SAINT-ETIENNE";"0.1"
"864";"LA-ROCHELLE";"SAINT-NAZAIRE";"2.3611"
"865";"LA-ROCHELLE";"SAINT-PAUL-LES-DURANCE";"0.5"
"866";"LA-ROCHELLE";"TOURS";"1.3333"
"867";"LA-ROCHELLE";"TROYES";"6.1667"
"868";"LA-ROCHELLE";"VANNES";"0.3333"
"869";"LA-ROCHELLE";"VILLARCEAUX";"0.0667"
"870";"LA-ROCHELLE";"VILLIERS-EN-BOIS";"1"
"871";"LA-ROCHELLE";"BORDEAUX";"3.0667"
"872";"LA-ROCHELLE";"CLERMONT-FERRAND";"2.3333"
"873";"LA-ROCHELLE";"GRENOBLE";"2.4332"
"874";"LA-ROCHELLE";"LILLE";"0.7611"
"875";"LA-ROCHELLE";"LYON";"5.5"
"876";"LA-ROCHELLE";"MARSEILLE-AIX";"1.1667"
"877";"LA-ROCHELLE";"MONTPELLIER";"1.5"
"878";"LA-ROCHELLE";"NANTES";"10.6276"
"879";"LA-ROCHELLE";"NICE";"1"
"880";"LA-ROCHELLE";"PARIS";"20.8001"
"881";"LA-ROCHELLE";"RENNES";"0.6667"
"882";"LA-ROCHELLE";"TOULOUSE";"1.1142"
"883";"LA-ROCHELLE";"VANDOEUVRE-LES-NANCY";"0.8333"
"884";"LA-ROCHE-SUR-YON";"LE-MANS";"1.6666"
"885";"LA-ROCHE-SUR-YON";"METZ";"1"
"886";"LA-ROCHE-SUR-YON";"ORLEANS";"0.3333"
"887";"LA-ROCHE-SUR-YON";"SAINT-NAZAIRE";"0.3333"
"888";"LA-ROCHE-SUR-YON";"NANTES";"1.3333"
"889";"LAVAL";"POITIERS";"2"
"890";"LAVAL";"SAINT-ETIENNE";"0.1667"
"891";"LAVAL";"VANNES";"0.3333"
"892";"LAVAL";"LYON";"0.5"
"893";"LAVAL";"NANTES";"1.6666"
"894";"LAVAL";"VANDOEUVRE-LES-NANCY";"1"
"895";"LE-BOURGET-DU-LAC";"LE-HAVRE";"0.1667"
"896";"LE-BOURGET-DU-LAC";"LIMOGES";"0.1667"
"897";"LE-BOURGET-DU-LAC";"METZ";"2.6666"
"898";"LE-BOURGET-DU-LAC";"MULHOUSE";"3.6666"
"899";"LE-BOURGET-DU-LAC";"ORLEANS";"2.1"
"900";"LE-BOURGET-DU-LAC";"PAU";"3.5"
"901";"LE-BOURGET-DU-LAC";"POITIERS";"0.1"
"902";"LE-BOURGET-DU-LAC";"ROUEN";"0.1667"
"903";"LE-BOURGET-DU-LAC";"SAINT-ETIENNE";"7.1"
"904";"LE-BOURGET-DU-LAC";"TOURS";"1.8333"
"905";"LE-BOURGET-DU-LAC";"TROYES";"0.0357"
"906";"LE-BOURGET-DU-LAC";"VILLEFRANCHE-SUR-SAONE";"0.1667"
"907";"LE-BOURGET-DU-LAC";"ANNECY-LE-VIEUX";"6.5"
"908";"LE-BOURGET-DU-LAC";"BORDEAUX";"2.7024"
"909";"LE-BOURGET-DU-LAC";"CLERMONT-FERRAND";"12.6666"
"910";"LE-BOURGET-DU-LAC";"GRENOBLE";"73.5888"
"911";"LE-BOURGET-DU-LAC";"LILLE";"3.8333"
"912";"LE-BOURGET-DU-LAC";"LYON";"31.5333"
"913";"LE-BOURGET-DU-LAC";"MARSEILLE-AIX";"4.8333"
"914";"LE-BOURGET-DU-LAC";"MONTPELLIER";"3.6667"
"915";"LE-BOURGET-DU-LAC";"NANTES";"3.6"
"916";"LE-BOURGET-DU-LAC";"NICE";"6.3809"
"917";"LE-BOURGET-DU-LAC";"PARIS";"21.469"
"918";"LE-BOURGET-DU-LAC";"RENNES";"2.1999"
"919";"LE-BOURGET-DU-LAC";"STRASBOURG";"3.8667"
"920";"LE-BOURGET-DU-LAC";"TOULOUSE";"1.6"
"921";"LE-BOURGET-DU-LAC";"VANDOEUVRE-LES-NANCY";"2.3334"
"922";"LE-CREUSOT";"METZ";"1"
"923";"LE-CREUSOT";"MULHOUSE";"2.8333"
"924";"LE-CREUSOT";"NEVERS";"1"
"925";"LE-CREUSOT";"SAINT-ETIENNE";"3.4999"
"926";"LE-CREUSOT";"SAINT-PAUL-LES-DURANCE";"0.3334"
"927";"LE-CREUSOT";"VILLARCEAUX";"0.3334"
"928";"LE-CREUSOT";"CLERMONT-FERRAND";"0.1667"
"929";"LE-CREUSOT";"GRENOBLE";"0.3334"
"930";"LE-CREUSOT";"LYON";"2.6666"
"931";"LE-CREUSOT";"MARSEILLE-AIX";"0.3333"
"932";"LE-CREUSOT";"NANTES";"0.8333"
"933";"LE-CREUSOT";"PARIS";"11.1667"
"934";"LE-CREUSOT";"STRASBOURG";"0.1667"
"935";"LE-CREUSOT";"TOULOUSE";"0.3333"
"936";"LE-CREUSOT";"VANDOEUVRE-LES-NANCY";"2"
"937";"LE-HAVRE";"LE-MANS";"1"
"938";"LE-HAVRE";"LORIENT";"1.1667"
"939";"LE-HAVRE";"METZ";"1"
"940";"LE-HAVRE";"MULHOUSE";"0.3333"
"941";"LE-HAVRE";"ORLEANS";"1.3333"
"942";"LE-HAVRE";"PAU";"1.1667"
"943";"LE-HAVRE";"POITIERS";"0.6666"
"944";"LE-HAVRE";"REIMS";"0.0667"
"945";"LE-HAVRE";"ROUEN";"20.1666"
"946";"LE-HAVRE";"SAINT-ETIENNE";"2.3333"
"947";"LE-HAVRE";"SAINT-NAZAIRE";"0.5"
"948";"LE-HAVRE";"VANNES";"0.3333"
"949";"LE-HAVRE";"BORDEAUX";"1.5"
"950";"LE-HAVRE";"GRENOBLE";"0.2334"
"951";"LE-HAVRE";"LILLE";"10.8334"
"952";"LE-HAVRE";"LYON";"5.0999"
"953";"LE-HAVRE";"MARSEILLE-AIX";"1.6"
"954";"LE-HAVRE";"MONTPELLIER";"1.3333"
"955";"LE-HAVRE";"NANTES";"0.5"
"956";"LE-HAVRE";"NICE";"2"
"957";"LE-HAVRE";"PARIS";"22.6667"
"958";"LE-HAVRE";"RENNES";"0.5"
"959";"LE-HAVRE";"TOULOUSE";"0.5"
"960";"LE-MANS";"LIMOGES";"0.3334"
"961";"LE-MANS";"LORIENT";"2.8334"
"962";"LE-MANS";"MONTBELIARD";"0.3333"
"963";"LE-MANS";"MULHOUSE";"1.2334"
"964";"LE-MANS";"NEVERS";"0.3333"
"965";"LE-MANS";"ORLEANS";"11.9476"
"966";"LE-MANS";"PAU";"0.5182"
"967";"LE-MANS";"POITIERS";"3.1206"
"968";"LE-MANS";"REIMS";"5.3333"
"969";"LE-MANS";"ROUEN";"7.1667"
"970";"LE-MANS";"SAINT-ETIENNE";"2.9023"
"971";"LE-MANS";"SAINT-PAUL-LES-DURANCE";"0.3333"
"972";"LE-MANS";"THONON-LES-BAINS";"0.0667"
"973";"LE-MANS";"TOURS";"3.5"
"974";"LE-MANS";"TROYES";"2.6666"
"975";"LE-MANS";"VANNES";"0.1667"
"976";"LE-MANS";"VILLAINES-LA-JUHEL";"1"
"977";"LE-MANS";"BORDEAUX";"7.0999"
"978";"LE-MANS";"CLERMONT-FERRAND";"0.1015"
"979";"LE-MANS";"GRENOBLE";"18.3285"
"980";"LE-MANS";"LILLE";"1.5667"
"981";"LE-MANS";"LYON";"8.5"
"982";"LE-MANS";"MARSEILLE-AIX";"1.4334"
"983";"LE-MANS";"MONTPELLIER";"8.9848"
"984";"LE-MANS";"NANTES";"37.5287"
"985";"LE-MANS";"NICE";"1.4"
"986";"LE-MANS";"PARIS";"49.2825"
"987";"LE-MANS";"RENNES";"11.7285"
"988";"LE-MANS";"STRASBOURG";"9.2334"
"989";"LE-MANS";"TOULOUSE";"3.8"
"990";"LE-MANS";"VANDOEUVRE-LES-NANCY";"2.0668"
"991";"LE-PUY-EN-VELAY";"LORIENT";"0.3333"
"992";"LE-PUY-EN-VELAY";"SAINT-ETIENNE";"0.5"
"993";"LE-PUY-EN-VELAY";"TOURS";"0.5"
"994";"LE-PUY-EN-VELAY";"RENNES";"1"
"995";"LE-PUY-EN-VELAY";"VANDOEUVRE-LES-NANCY";"1"
"996";"LIBOURNE";"BORDEAUX";"2.5"
"997";"LIBOURNE";"LILLE";"0.1667"
"998";"LIBOURNE";"PARIS";"1.4"
"999";"LIMOGES";"METZ";"4.0356"
"1000";"LIMOGES";"MONT-DE-MARSAN";"0.1667"
"1001";"LIMOGES";"MULHOUSE";"6.8333"
"1002";"LIMOGES";"ORLEANS";"8.8333"
"1003";"LIMOGES";"PAU";"3.3333"
"1004";"LIMOGES";"PERPIGNAN";"1"
"1005";"LIMOGES";"POITIERS";"10.3808"
"1006";"LIMOGES";"ROUEN";"2.1945"
"1007";"LIMOGES";"SAINT-ETIENNE";"6.0666"
"1008";"LIMOGES";"SAINT-PAUL-LES-DURANCE";"5.1"
"1009";"LIMOGES";"TOULON";"2.1666"
"1010";"LIMOGES";"TOURS";"13.1"
"1011";"LIMOGES";"VALENCE";"0.1"
"1012";"LIMOGES";"BORDEAUX";"13.2087"
"1013";"LIMOGES";"CLERMONT-FERRAND";"7.1278"
"1014";"LIMOGES";"GRENOBLE";"10.7476"
"1015";"LIMOGES";"LILLE";"5.4968"
"1016";"LIMOGES";"LYON";"12.2001"
"1017";"LIMOGES";"MARSEILLE-AIX";"5"
"1018";"LIMOGES";"MONTPELLIER";"3.9088"
"1019";"LIMOGES";"NANTES";"7.1357"
"1020";"LIMOGES";"PARIS";"59.68"
"1021";"LIMOGES";"RENNES";"8.369"
"1022";"LIMOGES";"STRASBOURG";"0.9302"
"1023";"LIMOGES";"TOULOUSE";"11.7897"
"1024";"LIMOGES";"VANDOEUVRE-LES-NANCY";"9.55"
"1025";"LORIENT";"MULHOUSE";"2.6666"
"1026";"LORIENT";"PAU";"0.3333"
"1027";"LORIENT";"POITIERS";"1.6666"
"1028";"LORIENT";"QUIMPER";"0.0278"
"1029";"LORIENT";"REIMS";"0.3333"
"1030";"LORIENT";"ROUEN";"3.1667"
"1031";"LORIENT";"SAINT-ETIENNE";"1.1667"
"1032";"LORIENT";"SAINT-NAZAIRE";"2.1944"
"1033";"LORIENT";"SAINT-PAUL-LES-DURANCE";"0.5"
"1034";"LORIENT";"TROYES";"2"
"1035";"LORIENT";"VANNES";"1"
"1036";"LORIENT";"ANNECY-LE-VIEUX";"0.5"
"1037";"LORIENT";"BORDEAUX";"0.6667"
"1038";"LORIENT";"CLERMONT-FERRAND";"2.6794"
"1039";"LORIENT";"GRENOBLE";"2.6666"
"1040";"LORIENT";"LILLE";"0.0278"
"1041";"LORIENT";"LYON";"5.3333"
"1042";"LORIENT";"MONTPELLIER";"2.3334"
"1043";"LORIENT";"NANTES";"4.3611"
"1044";"LORIENT";"PARIS";"18.7271"
"1045";"LORIENT";"RENNES";"25.4999"
"1046";"LORIENT";"STRASBOURG";"0.1667"
"1047";"LORIENT";"TOULOUSE";"2.1999"
"1048";"LORIENT";"VANDOEUVRE-LES-NANCY";"1.1667"
"1049";"LORIENT";"PAIMPONT";"1"
"1050";"METZ";"MONTBELIARD";"1"
"1051";"METZ";"MULHOUSE";"8.0999"
"1052";"METZ";"ORLEANS";"5.2666"
"1053";"METZ";"PAU";"0.0278"
"1054";"METZ";"POITIERS";"0.3612"
"1055";"METZ";"PRIGONRIEUX";"0.3333"
"1056";"METZ";"REIMS";"2.1476"
"1057";"METZ";"ROUEN";"0.1667"
"1058";"METZ";"SAINT-ETIENNE";"4.8944"
"1059";"METZ";"SAINT-PAUL-LES-DURANCE";"0.3334"
"1060";"METZ";"TROYES";"1.7666"
"1061";"METZ";"VILLAINES-LA-JUHEL";"0.1667"
"1062";"METZ";"WIMEREUX";"0.3333"
"1063";"METZ";"ANNECY-LE-VIEUX";"0.1278"
"1064";"METZ";"BORDEAUX";"5.7666"
"1065";"METZ";"CLERMONT-FERRAND";"0.6944"
"1066";"METZ";"GRENOBLE";"28.2754"
"1067";"METZ";"LILLE";"13.25"
"1068";"METZ";"LYON";"15.1998"
"1069";"METZ";"MARSEILLE-AIX";"4.5"
"1070";"METZ";"MONTPELLIER";"4.5278"
"1071";"METZ";"NANTES";"3.5833"
"1072";"METZ";"NICE";"7"
"1073";"METZ";"PARIS";"88.9665"
"1074";"METZ";"RENNES";"5.2024"
"1075";"METZ";"STRASBOURG";"7.3832"
"1076";"METZ";"TOULOUSE";"6.5"
"1077";"METZ";"VANDOEUVRE-LES-NANCY";"63.6358"
"1078";"MEZE";"MONTPELLIER";"1"
"1079";"MEZE";"NICE";"0.3333"
"1080";"MEZE";"PARIS";"0.3333"
"1081";"MONTAUBAN";"POITIERS";"1"
"1082";"MONTAUBAN";"BORDEAUX";"0.3333"
"1083";"MONTAUBAN";"GRENOBLE";"2"
"1084";"MONTAUBAN";"MONTPELLIER";"1"
"1085";"MONTAUBAN";"PARIS";"0.1"
"1086";"MONTAUBAN";"TOULOUSE";"1"
"1087";"MONTBELIARD";"MULHOUSE";"14.6667"
"1088";"MONTBELIARD";"BORDEAUX";"0.1667"
"1089";"MONTBELIARD";"LILLE";"0.3333"
"1090";"MONTBELIARD";"LYON";"2.9999"
"1091";"MONTBELIARD";"MARSEILLE-AIX";"1"
"1092";"MONTBELIARD";"MONTPELLIER";"0.3333"
"1093";"MONTBELIARD";"PARIS";"0.1667"
"1094";"MONTBELIARD";"RENNES";"0.1667"
"1095";"MONTBELIARD";"STRASBOURG";"0.8333"
"1096";"MONTBELIARD";"VANDOEUVRE-LES-NANCY";"3.3334"
"1097";"MONT-DE-MARSAN";"PAU";"2.7667"
"1098";"MONT-DE-MARSAN";"BORDEAUX";"3.3333"
"1099";"MONT-DE-MARSAN";"CLERMONT-FERRAND";"0.3333"
"1100";"MONT-DE-MARSAN";"MONTPELLIER";"0.1667"
"1101";"MONT-DE-MARSAN";"NANTES";"0.3333"
"1102";"MONT-DE-MARSAN";"NICE";"0.0357"
"1103";"MONT-DE-MARSAN";"TOULOUSE";"0.5"
"1104";"MONT-DE-MARSAN";"VANDOEUVRE-LES-NANCY";"1.1667"
"1105";"MONTENDRE";"BORDEAUX";"2"
"1106";"MONTLUCON";"ROUEN";"0.3333"
"1107";"MONTLUCON";"CLERMONT-FERRAND";"2.5"
"1108";"MONTLUCON";"GRENOBLE";"1"
"1109";"MONTLUCON";"NANTES";"0.1667"
"1110";"MONTLUCON";"PARIS";"2.3333"
"1111";"MONTOLDRE";"CLERMONT-FERRAND";"0.3333"
"1112";"MONTOLDRE";"GRENOBLE";"0.3333"
"1113";"MULHOUSE";"NEVERS";"1"
"1114";"MULHOUSE";"ORLEANS";"1.5358"
"1115";"MULHOUSE";"OTTERSWILLER";"0.1667"
"1116";"MULHOUSE";"PAU";"5.4999"
"1117";"MULHOUSE";"PERPIGNAN";"0.3333"
"1118";"MULHOUSE";"POINTE-A-PITRE";"0.1667"
"1119";"MULHOUSE";"POITIERS";"7.3024"
"1120";"MULHOUSE";"REIMS";"1"
"1121";"MULHOUSE";"ROUEN";"0.0222"
"1122";"MULHOUSE";"SAINT-ETIENNE";"2.4332"
"1123";"MULHOUSE";"SAINT-PAUL-LES-DURANCE";"0.1"
"1124";"MULHOUSE";"SELESTAT";"0.1"
"1125";"MULHOUSE";"THONON-LES-BAINS";"0.0667"
"1126";"MULHOUSE";"TOULON";"0.1"
"1127";"MULHOUSE";"TOURS";"1.3334"
"1128";"MULHOUSE";"TROYES";"4.5999"
"1129";"MULHOUSE";"VANNES";"1.3333"
"1130";"MULHOUSE";"VILLEFRANCHE-SUR-SAONE";"1"
"1131";"MULHOUSE";"BORDEAUX";"14.3333"
"1132";"MULHOUSE";"CLERMONT-FERRAND";"5.1222"
"1133";"MULHOUSE";"GRENOBLE";"26.6024"
"1134";"MULHOUSE";"LILLE";"9.0579"
"1135";"MULHOUSE";"LYON";"33.0246"
"1136";"MULHOUSE";"MARSEILLE-AIX";"64.4555"
"1137";"MULHOUSE";"MONTPELLIER";"9.3913"
"1138";"MULHOUSE";"NANTES";"7.4333"
"1139";"MULHOUSE";"NICE";"0.3333"
"1140";"MULHOUSE";"PARIS";"92.7247"
"1141";"MULHOUSE";"RENNES";"5.8579"
"1142";"MULHOUSE";"STRASBOURG";"81.8023"
"1143";"MULHOUSE";"TOULOUSE";"17.469"
"1144";"MULHOUSE";"VANDOEUVRE-LES-NANCY";"47"
"1145";"MULHOUSE";"PAIMPONT";"1"
"1146";"NARBONNE";"ORLEANS";"1"
"1147";"NARBONNE";"PERPIGNAN";"1"
"1148";"NARBONNE";"PIERRELATTE";"0.5"
"1149";"NARBONNE";"SAINT-PAUL-LES-DURANCE";"0.3333"
"1150";"NARBONNE";"BORDEAUX";"0.3333"
"1151";"NARBONNE";"LYON";"2"
"1152";"NARBONNE";"MARSEILLE-AIX";"1.3333"
"1153";"NARBONNE";"MONTPELLIER";"2"
"1154";"NARBONNE";"PARIS";"2.8333"
"1155";"NARBONNE";"RENNES";"0.0211"
"1156";"NARBONNE";"TOULOUSE";"1.6666"
"1157";"NEVERS";"ORLEANS";"0.3333"
"1158";"NEVERS";"PAU";"0.1667"
"1159";"NEVERS";"ANNECY-LE-VIEUX";"0.1667"
"1160";"NEVERS";"GRENOBLE";"3.4333"
"1161";"NEVERS";"LILLE";"0.3333"
"1162";"NEVERS";"PARIS";"5.4333"
"1163";"NEVERS";"STRASBOURG";"0.4333"
"1164";"NEVERS";"VANDOEUVRE-LES-NANCY";"1"
"1165";"NOGENT-SUR-VERNISSON";"LILLE";"1"
"1166";"NOGENT-SUR-VERNISSON";"LYON";"8"
"1167";"NOGENT-SUR-VERNISSON";"PARIS";"5.3333"
"1168";"NOGENT-SUR-VERNISSON";"STRASBOURG";"1"
"1169";"NOUMEA";"PAPEETE";"0.8143"
"1170";"NOUMEA";"PERPIGNAN";"0.0667"
"1171";"NOUMEA";"BORDEAUX";"0.0667"
"1172";"NOUMEA";"LYON";"0.1667"
"1173";"NOUMEA";"MARSEILLE-AIX";"2.0666"
"1174";"NOUMEA";"MONTPELLIER";"1"
"1175";"NOUMEA";"PARIS";"3.5476"
"1176";"NOUMEA";"TOULOUSE";"0.4476"
"1177";"NOUMEA";"VANDOEUVRE-LES-NANCY";"0.1667"
"1178";"ORDIARP";"ORLEANS";"0.5"
"1179";"ORDIARP";"PAU";"0.5"
"1180";"ORDIARP";"BORDEAUX";"0.1667"
"1181";"ORLEANS";"PAU";"2.0333"
"1182";"ORLEANS";"PERPIGNAN";"3.3334"
"1183";"ORLEANS";"POITIERS";"11.9358"
"1184";"ORLEANS";"PONTIVY";"1"
"1185";"ORLEANS";"QUIMPER";"1"
"1186";"ORLEANS";"REIMS";"2.4"
"1187";"ORLEANS";"ROUEN";"3.3333"
"1188";"ORLEANS";"SAINT-ETIENNE";"2.1"
"1189";"ORLEANS";"SAINT-LO";"0.1667"
"1190";"ORLEANS";"SAINT-NAZAIRE";"3.3333"
"1191";"ORLEANS";"SAINT-PAUL-LES-DURANCE";"4.6667"
"1192";"ORLEANS";"SAINT-PIERRE-LES-NEMOURS";"2"
"1193";"ORLEANS";"TOULON";"0.0278"
"1194";"ORLEANS";"TOURS";"36.4285"
"1195";"ORLEANS";"VILLARCEAUX";"7.7658"
"1196";"ORLEANS";"ANNECY-LE-VIEUX";"1"
"1197";"ORLEANS";"BORDEAUX";"27.0414"
"1198";"ORLEANS";"CLERMONT-FERRAND";"12.6951"
"1199";"ORLEANS";"GRENOBLE";"19.4339"
"1200";"ORLEANS";"LILLE";"14.4838"
"1201";"ORLEANS";"LYON";"24.7634"
"1202";"ORLEANS";"MARSEILLE-AIX";"8.3332"
"1203";"ORLEANS";"MONTPELLIER";"13.7611"
"1204";"ORLEANS";"NANTES";"12.3419"
"1205";"ORLEANS";"NICE";"2.4325"
"1206";"ORLEANS";"PARIS";"150.756"
"1207";"ORLEANS";"RENNES";"12.9"
"1208";"ORLEANS";"STRASBOURG";"5.6666"
"1209";"ORLEANS";"TOULOUSE";"11.4334"
"1210";"ORLEANS";"VANDOEUVRE-LES-NANCY";"10.8143"
"1211";"OTTERSWILLER";"LYON";"0.3333"
"1212";"OTTERSWILLER";"PARIS";"0.5"
"1213";"OTTERSWILLER";"STRASBOURG";"10.1667"
"1214";"OTTERSWILLER";"VANDOEUVRE-LES-NANCY";"0.6666"
"1215";"PAMIERS";"BORDEAUX";"1.1"
"1216";"PAMIERS";"CLERMONT-FERRAND";"0.8334"
"1217";"PAMIERS";"LYON";"0.4333"
"1218";"PAMIERS";"MONTPELLIER";"0.1"
"1219";"PAMIERS";"PARIS";"0.8333"
"1220";"PAMIERS";"TOULOUSE";"2.7666"
"1221";"PAPEETE";"PERPIGNAN";"0.1667"
"1222";"PAPEETE";"MARSEILLE-AIX";"4.6667"
"1223";"PAPEETE";"MONTPELLIER";"1.6666"
"1224";"PAPEETE";"NICE";"0.3333"
"1225";"PAPEETE";"PARIS";"5.1477"
"1226";"PAPEETE";"TOULOUSE";"2.5477"
"1227";"PAU";"PIERRELATTE";"0.3333"
"1228";"PAU";"POITIERS";"1.0459"
"1229";"PAU";"REIMS";"0.3333"
"1230";"PAU";"ROUEN";"1.5"
"1231";"PAU";"SAINT-ETIENNE";"0.5277"
"1232";"PAU";"SAINT-PAUL-LES-DURANCE";"3.0222"
"1233";"PAU";"TOULON";"0.6666"
"1234";"PAU";"TOURS";"2.9333"
"1235";"PAU";"ANNECY-LE-VIEUX";"0.1945"
"1236";"PAU";"BORDEAUX";"62.1333"
"1237";"PAU";"CLERMONT-FERRAND";"9.5793"
"1238";"PAU";"GRENOBLE";"9.3364"
"1239";"PAU";"LILLE";"10.0476"
"1240";"PAU";"LYON";"21.1023"
"1241";"PAU";"MARSEILLE-AIX";"9.6666"
"1242";"PAU";"MONTPELLIER";"21.2602"
"1243";"PAU";"NANTES";"2.8999"
"1244";"PAU";"NICE";"2"
"1245";"PAU";"PARIS";"64.5102"
"1246";"PAU";"RENNES";"12.3665"
"1247";"PAU";"STRASBOURG";"9.2024"
"1248";"PAU";"TOULOUSE";"74.5168"
"1249";"PAU";"VANDOEUVRE-LES-NANCY";"9.5143"
"1250";"PERIGUEUX";"BORDEAUX";"1"
"1251";"PERIGUEUX";"PARIS";"0.3333"
"1252";"PERIGUEUX";"STRASBOURG";"0.3333"
"1253";"PERONNE";"LILLE";"2.3333"
"1254";"PERONNE";"PARIS";"2"
"1255";"PERONNE";"RENNES";"1"
"1256";"PERPIGNAN";"SAINT-ETIENNE";"1"
"1257";"PERPIGNAN";"SAINT-PAUL-LES-DURANCE";"0.3333"
"1258";"PERPIGNAN";"TOULON";"0.1667"
"1259";"PERPIGNAN";"BORDEAUX";"0.0667"
"1260";"PERPIGNAN";"CLERMONT-FERRAND";"0.3333"
"1261";"PERPIGNAN";"GRENOBLE";"3.1667"
"1262";"PERPIGNAN";"LILLE";"1"
"1263";"PERPIGNAN";"LYON";"2"
"1264";"PERPIGNAN";"MARSEILLE-AIX";"1.2333"
"1265";"PERPIGNAN";"MONTPELLIER";"5.2"
"1266";"PERPIGNAN";"NANTES";"1"
"1267";"PERPIGNAN";"NICE";"1.9999"
"1268";"PERPIGNAN";"PARIS";"11.8666"
"1269";"PERPIGNAN";"RENNES";"0.1"
"1270";"PERPIGNAN";"TOULOUSE";"12.7001"
"1271";"PERPIGNAN";"VANDOEUVRE-LES-NANCY";"0.3333"
"1272";"PIERRELATTE";"POITIERS";"1.6667"
"1273";"PIERRELATTE";"SAINT-PAUL-LES-DURANCE";"1.3333"
"1274";"PIERRELATTE";"BORDEAUX";"2.5"
"1275";"PIERRELATTE";"CLERMONT-FERRAND";"0.6667"
"1276";"PIERRELATTE";"GRENOBLE";"1"
"1277";"PIERRELATTE";"LYON";"0.3333"
"1278";"PIERRELATTE";"MARSEILLE-AIX";"0.3333"
"1279";"PIERRELATTE";"MONTPELLIER";"2.6"
"1280";"PIERRELATTE";"NANTES";"1"
"1281";"PIERRELATTE";"NICE";"0.1667"
"1282";"PIERRELATTE";"PARIS";"3.5"
"1283";"PIERRELATTE";"STRASBOURG";"0.3333"
"1284";"PIERRELATTE";"TOULOUSE";"0.1667"
"1285";"PLOUFRAGAN";"BORDEAUX";"0.3334"
"1286";"PLOUFRAGAN";"GRENOBLE";"1.6"
"1287";"PLOUFRAGAN";"LILLE";"1.4334"
"1288";"PLOUFRAGAN";"NANTES";"2.7667"
"1289";"PLOUFRAGAN";"PARIS";"1.6"
"1290";"PLOUFRAGAN";"RENNES";"4.7667"
"1291";"PLOUFRAGAN";"TOULOUSE";"1.3333"
"1292";"POINTE-A-PITRE";"SAINT-PIERRE";"1"
"1293";"POINTE-A-PITRE";"BORDEAUX";"3.3333"
"1294";"POINTE-A-PITRE";"CLERMONT-FERRAND";"1.5"
"1295";"POINTE-A-PITRE";"LYON";"1"
"1296";"POINTE-A-PITRE";"MONTPELLIER";"6.3334"
"1297";"POINTE-A-PITRE";"NANTES";"0.3333"
"1298";"POINTE-A-PITRE";"PARIS";"0.1667"
"1299";"POINTE-A-PITRE";"RENNES";"0.3333"
"1300";"POINTE-A-PITRE";"TOULOUSE";"0.1667"
"1301";"POITIERS";"REIMS";"1.5"
"1302";"POITIERS";"SAINT-DENIS";"1"
"1303";"POITIERS";"SAINT-ETIENNE";"0.9968"
"1304";"POITIERS";"SAINT-NAZAIRE";"0.6666"
"1305";"POITIERS";"SAINT-PAUL-LES-DURANCE";"2.5"
"1306";"POITIERS";"TOURS";"7.1667"
"1307";"POITIERS";"TROYES";"0.1667"
"1308";"POITIERS";"ANNECY-LE-VIEUX";"0.0278"
"1309";"POITIERS";"BORDEAUX";"10.0333"
"1310";"POITIERS";"CLERMONT-FERRAND";"3.7483"
"1311";"POITIERS";"GRENOBLE";"17.0023"
"1312";"POITIERS";"LILLE";"15"
"1313";"POITIERS";"LYON";"43.3667"
"1314";"POITIERS";"MARSEILLE-AIX";"5.0667"
"1315";"POITIERS";"MONTPELLIER";"11.2126"
"1316";"POITIERS";"NANTES";"12.4"
"1317";"POITIERS";"NICE";"0.5"
"1318";"POITIERS";"PARIS";"129.8174"
"1319";"POITIERS";"RENNES";"2.4"
"1320";"POITIERS";"STRASBOURG";"3.1666"
"1321";"POITIERS";"TOULOUSE";"12.0476"
"1322";"POITIERS";"VANDOEUVRE-LES-NANCY";"9.8333"
"1323";"PONTIVY";"VANDOEUVRE-LES-NANCY";"0.3333"
"1324";"PRIGONRIEUX";"GRENOBLE";"0.3333"
"1325";"PRIGONRIEUX";"PARIS";"0.3333"
"1326";"QUIMPER";"SAINT-DENIS";"3.5"
"1327";"QUIMPER";"SAINT-MALO";"0.3333"
"1328";"QUIMPER";"SAINT-NAZAIRE";"0.0278"
"1329";"QUIMPER";"GRENOBLE";"0.1667"
"1330";"QUIMPER";"LILLE";"0.3611"
"1331";"QUIMPER";"NANTES";"1.1945"
"1332";"QUIMPER";"PARIS";"3"
"1333";"RAMBOUILLET";"CLERMONT-FERRAND";"1.1667"
"1334";"RAMBOUILLET";"GRENOBLE";"0.1667"
"1335";"RAMBOUILLET";"TOULOUSE";"0.1667"
"1336";"REIMS";"ROUEN";"5.4333"
"1337";"REIMS";"SAINT-NAZAIRE";"2.3333"
"1338";"REIMS";"TOULON";"0.3333"
"1339";"REIMS";"TOURS";"1.3333"
"1340";"REIMS";"TROYES";"2.8333"
"1341";"REIMS";"VILLARCEAUX";"0.1667"
"1342";"REIMS";"BORDEAUX";"8.9333"
"1343";"REIMS";"CLERMONT-FERRAND";"1.4999"
"1344";"REIMS";"GRENOBLE";"8.4788"
"1345";"REIMS";"LILLE";"28.2666"
"1346";"REIMS";"LYON";"6.1857"
"1347";"REIMS";"MARSEILLE-AIX";"4.2143"
"1348";"REIMS";"MONTPELLIER";"3.1667"
"1349";"REIMS";"NANTES";"3.5165"
"1350";"REIMS";"NICE";"6.1666"
"1351";"REIMS";"PARIS";"55.6584"
"1352";"REIMS";"RENNES";"6.1666"
"1353";"REIMS";"STRASBOURG";"17.0001"
"1354";"REIMS";"TOULOUSE";"12.9333"
"1355";"REIMS";"VANDOEUVRE-LES-NANCY";"4.2809"
"1356";"ROANNE";"LYON";"0.3333"
"1357";"RODEZ";"SAINT-ETIENNE";"0.3333"
"1358";"RODEZ";"LYON";"0.3333"
"1359";"ROUEN";"SAINT-ETIENNE";"44.1"
"1360";"ROUEN";"SAINT-PAUL-LES-DURANCE";"0.3333"
"1361";"ROUEN";"THONON-LES-BAINS";"0.5"
"1362";"ROUEN";"TOURS";"0.1667"
"1363";"ROUEN";"BORDEAUX";"2.0278"
"1364";"ROUEN";"CLERMONT-FERRAND";"2.1167"
"1365";"ROUEN";"GRENOBLE";"10.4999"
"1366";"ROUEN";"LILLE";"6.7501"
"1367";"ROUEN";"LYON";"17.7888"
"1368";"ROUEN";"MARSEILLE-AIX";"3.558"
"1369";"ROUEN";"MONTPELLIER";"5.8499"
"1370";"ROUEN";"NANTES";"8.2666"
"1371";"ROUEN";"PARIS";"100.3278"
"1372";"ROUEN";"RENNES";"6.8913"
"1373";"ROUEN";"STRASBOURG";"6.1278"
"1374";"ROUEN";"TOULOUSE";"8.6755"
"1375";"SAINT-DENIS";"SAINT-PAUL-LES-DURANCE";"0.1667"
"1376";"SAINT-DENIS";"SAINT-PIERRE";"0.6666"
"1377";"SAINT-DENIS";"TOULON";"1"
"1378";"SAINT-DENIS";"GRENOBLE";"1.6667"
"1379";"SAINT-DENIS";"MARSEILLE-AIX";"0.1667"
"1380";"SAINT-DENIS";"MONTPELLIER";"2.2666"
"1381";"SAINT-DENIS";"NANTES";"0.1667"
"1382";"SAINT-DENIS";"PARIS";"4.1"
"1383";"SAINT-ETIENNE";"SAINT-NAZAIRE";"1"
"1384";"SAINT-ETIENNE";"SAINT-PAUL-LES-DURANCE";"2.5"
"1385";"SAINT-ETIENNE";"THONON-LES-BAINS";"0.1667"
"1386";"SAINT-ETIENNE";"TOURS";"0.8333"
"1387";"SAINT-ETIENNE";"TROYES";"0.6666"
"1388";"SAINT-ETIENNE";"UGINE";"0.3333"
"1389";"SAINT-ETIENNE";"VILLARCEAUX";"0.3333"
"1390";"SAINT-ETIENNE";"ANNECY-LE-VIEUX";"0.0278"
"1391";"SAINT-ETIENNE";"BORDEAUX";"3.8333"
"1392";"SAINT-ETIENNE";"CLERMONT-FERRAND";"5.3969"
"1393";"SAINT-ETIENNE";"GRENOBLE";"46.9999"
"1394";"SAINT-ETIENNE";"LILLE";"12.5668"
"1395";"SAINT-ETIENNE";"LYON";"105.8477"
"1396";"SAINT-ETIENNE";"MARSEILLE-AIX";"14.7477"
"1397";"SAINT-ETIENNE";"MONTPELLIER";"1.9087"
"1398";"SAINT-ETIENNE";"NANTES";"9.9333"
"1399";"SAINT-ETIENNE";"NICE";"4.0691"
"1400";"SAINT-ETIENNE";"PARIS";"96.8967"
"1401";"SAINT-ETIENNE";"RENNES";"0.5"
"1402";"SAINT-ETIENNE";"STRASBOURG";"9.1666"
"1403";"SAINT-ETIENNE";"TOULOUSE";"11.6666"
"1404";"SAINT-ETIENNE";"VANDOEUVRE-LES-NANCY";"5.1334"
"1405";"SAINT-GIRONS";"BORDEAUX";"4.3333"
"1406";"SAINT-GIRONS";"GRENOBLE";"1"
"1407";"SAINT-GIRONS";"LYON";"1.3333"
"1408";"SAINT-GIRONS";"MONTPELLIER";"1"
"1409";"SAINT-GIRONS";"PARIS";"1.9999"
"1410";"SAINT-GIRONS";"RENNES";"0.3333"
"1411";"SAINT-GIRONS";"TOULOUSE";"6.6666"
"1412";"SAINT-JEAN-DE-MAURIENNE";"GRENOBLE";"0.1667"
"1413";"SAINT-JEAN-DE-MAURIENNE";"MARSEILLE-AIX";"0.1667"
"1414";"SAINT-LO";"MONTPELLIER";"0.3333"
"1415";"SAINT-LO";"PARIS";"4"
"1416";"SAINT-MALO";"LILLE";"0.3333"
"1417";"SAINT-MALO";"RENNES";"2.1666"
"1418";"SAINT-MALO";"TOULOUSE";"1"
"1419";"SAINT-NAZAIRE";"TROYES";"1"
"1420";"SAINT-NAZAIRE";"BORDEAUX";"1"
"1421";"SAINT-NAZAIRE";"CLERMONT-FERRAND";"1.3334"
"1422";"SAINT-NAZAIRE";"GRENOBLE";"2.3666"
"1423";"SAINT-NAZAIRE";"LILLE";"2.0278"
"1424";"SAINT-NAZAIRE";"LYON";"2.5333"
"1425";"SAINT-NAZAIRE";"MONTPELLIER";"1.0334"
"1426";"SAINT-NAZAIRE";"NANTES";"23.0279"
"1427";"SAINT-NAZAIRE";"PARIS";"6.6999"
"1428";"SAINT-NAZAIRE";"RENNES";"1.4334"
"1429";"SAINT-NAZAIRE";"TOULOUSE";"1"
"1430";"SAINT-PAUL-LES-DURANCE";"TOULON";"1.1666"
"1431";"SAINT-PAUL-LES-DURANCE";"TROYES";"2"
"1432";"SAINT-PAUL-LES-DURANCE";"VALENCE";"0.3619"
"1433";"SAINT-PAUL-LES-DURANCE";"BORDEAUX";"13.4332"
"1434";"SAINT-PAUL-LES-DURANCE";"CLERMONT-FERRAND";"0.3333"
"1435";"SAINT-PAUL-LES-DURANCE";"GRENOBLE";"21.7509"
"1436";"SAINT-PAUL-LES-DURANCE";"LILLE";"6.9"
"1437";"SAINT-PAUL-LES-DURANCE";"LYON";"6.8333"
"1438";"SAINT-PAUL-LES-DURANCE";"MARSEILLE-AIX";"66.0794"
"1439";"SAINT-PAUL-LES-DURANCE";"MONTPELLIER";"7.8999"
"1440";"SAINT-PAUL-LES-DURANCE";"NANTES";"0.3809"
"1441";"SAINT-PAUL-LES-DURANCE";"NICE";"1.5334"
"1442";"SAINT-PAUL-LES-DURANCE";"PARIS";"46.5712"
"1443";"SAINT-PAUL-LES-DURANCE";"RENNES";"3.3333"
"1444";"SAINT-PAUL-LES-DURANCE";"STRASBOURG";"0.7667"
"1445";"SAINT-PAUL-LES-DURANCE";"TOULOUSE";"5.4"
"1446";"SAINT-PAUL-LES-DURANCE";"VANDOEUVRE-LES-NANCY";"4.4001"
"1447";"SAINT-PIERRE";"LYON";"2"
"1448";"SAINT-PIERRE";"MONTPELLIER";"2.3333"
"1449";"SAINT-PIERRE";"PARIS";"0.3333"
"1450";"SAINT-PIERRE-LES-NEMOURS";"BORDEAUX";"0.3333"
"1451";"SAINT-PIERRE-LES-NEMOURS";"CLERMONT-FERRAND";"0.1667"
"1452";"SAINT-PIERRE-LES-NEMOURS";"GRENOBLE";"0.3333"
"1453";"SAINT-PIERRE-LES-NEMOURS";"LYON";"0.3333"
"1454";"SAINT-PIERRE-LES-NEMOURS";"MONTPELLIER";"0.1667"
"1455";"SAINT-PIERRE-LES-NEMOURS";"PARIS";"3.6666"
"1456";"SAINT-PIERRE-LES-NEMOURS";"TOULOUSE";"1.6666"
"1457";"SAINT-SATURNIN";"CLERMONT-FERRAND";"1.3333"
"1458";"SAINT-SATURNIN";"RENNES";"0.3333"
"1459";"SELESTAT";"LYON";"1"
"1460";"SELESTAT";"MONTPELLIER";"0.1667"
"1461";"SELESTAT";"STRASBOURG";"1"
"1462";"SEMUR-EN-AUXOIS";"PARIS";"0.3333"
"1463";"SENS";"PARIS";"1.1667"
"1464";"SENS";"STRASBOURG";"1.1667"
"1465";"SOMAIN";"LILLE";"0.3333"
"1466";"SOMAIN";"LYON";"9.3332"
"1467";"SOMAIN";"PARIS";"1.3332"
"1468";"SOMAIN";"TOULOUSE";"5.3333"
"1469";"THONON-LES-BAINS";"TOURS";"0.1667"
"1470";"THONON-LES-BAINS";"TROYES";"1"
"1471";"THONON-LES-BAINS";"ANNECY-LE-VIEUX";"0.1667"
"1472";"THONON-LES-BAINS";"GRENOBLE";"0.4333"
"1473";"THONON-LES-BAINS";"LYON";"2.1667"
"1474";"THONON-LES-BAINS";"MARSEILLE-AIX";"0.4333"
"1475";"THONON-LES-BAINS";"PARIS";"1.8333"
"1476";"THONON-LES-BAINS";"STRASBOURG";"8.7333"
"1477";"THONON-LES-BAINS";"TOULOUSE";"0.3333"
"1478";"THONON-LES-BAINS";"VANDOEUVRE-LES-NANCY";"1.1667"
"1479";"TOULON";"BORDEAUX";"1.5277"
"1480";"TOULON";"CLERMONT-FERRAND";"3.1667"
"1481";"TOULON";"GRENOBLE";"1.8334"
"1482";"TOULON";"LILLE";"2.8333"
"1483";"TOULON";"LYON";"2.1945"
"1484";"TOULON";"MARSEILLE-AIX";"28.6"
"1485";"TOULON";"MONTPELLIER";"1.6944"
"1486";"TOULON";"NANTES";"2.7944"
"1487";"TOULON";"NICE";"2.4374"
"1488";"TOULON";"PARIS";"12.565"
"1489";"TOULON";"RENNES";"0.3333"
"1490";"TOULON";"STRASBOURG";"0.1"
"1491";"TOULON";"TOULOUSE";"4.8334"
"1492";"TOURS";"TROYES";"0.1"
"1493";"TOURS";"VILLARCEAUX";"0.1667"
"1494";"TOURS";"BORDEAUX";"29.6005"
"1495";"TOURS";"CLERMONT-FERRAND";"2.8666"
"1496";"TOURS";"GRENOBLE";"15.5277"
"1497";"TOURS";"LILLE";"4.9333"
"1498";"TOURS";"LYON";"8.4333"
"1499";"TOURS";"MARSEILLE-AIX";"12"
"1500";"TOURS";"MONTPELLIER";"19.6999"
"1501";"TOURS";"NANTES";"7.5001"
"1502";"TOURS";"NICE";"1.1"
"1503";"TOURS";"PARIS";"44.6092"
"1504";"TOURS";"RENNES";"0.1667"
"1505";"TOURS";"STRASBOURG";"1.1004"
"1506";"TOURS";"TOULOUSE";"13.3333"
"1507";"TOURS";"VANDOEUVRE-LES-NANCY";"5.8809"
"1508";"TROYES";"VILLAINES-LA-JUHEL";"0.3333"
"1509";"TROYES";"BORDEAUX";"0.0357"
"1510";"TROYES";"CLERMONT-FERRAND";"0.1667"
"1511";"TROYES";"GRENOBLE";"3.4999"
"1512";"TROYES";"LILLE";"0.3333"
"1513";"TROYES";"LYON";"4.8334"
"1514";"TROYES";"MONTPELLIER";"3.2667"
"1515";"TROYES";"NANTES";"1.8334"
"1516";"TROYES";"NICE";"0.3333"
"1517";"TROYES";"PARIS";"27.15"
"1518";"TROYES";"RENNES";"0.1"
"1519";"TROYES";"STRASBOURG";"0.1"
"1520";"TROYES";"TOULOUSE";"0.7666"
"1521";"TROYES";"VANDOEUVRE-LES-NANCY";"0.3333"
"1522";"UGINE";"GRENOBLE";"2.6666"
"1523";"UGINE";"LYON";"0.6666"
"1524";"UGINE";"NICE";"0.3333"
"1525";"UGINE";"TOULOUSE";"0.3333"
"1526";"UGINE";"VANDOEUVRE-LES-NANCY";"5"
"1527";"VALENCE";"BORDEAUX";"0.1"
"1528";"VALENCE";"CLERMONT-FERRAND";"0.1667"
"1529";"VALENCE";"GRENOBLE";"3.1952"
"1530";"VALENCE";"LILLE";"0.6666"
"1531";"VALENCE";"LYON";"2.5"
"1532";"VALENCE";"MONTPELLIER";"1"
"1533";"VALENCE";"NICE";"0.0016"
"1534";"VALENCE";"PARIS";"0.6301"
"1535";"VALENCE";"STRASBOURG";"0.1"
"1536";"VALENCE";"TOULOUSE";"1"
"1537";"VANNES";"BORDEAUX";"0.6667"
"1538";"VANNES";"NANTES";"1.4333"
"1539";"VANNES";"PARIS";"1.1667"
"1540";"VANNES";"RENNES";"2.3333"
"1541";"VANNES";"TOULOUSE";"1.3333"
"1542";"VILLAINES-LA-JUHEL";"GRENOBLE";"1"
"1543";"VILLAINES-LA-JUHEL";"LILLE";"1"
"1544";"VILLAINES-LA-JUHEL";"PARIS";"0.3333"
"1545";"VILLAINES-LA-JUHEL";"STRASBOURG";"0.1667"
"1546";"VILLAINES-LA-JUHEL";"VANDOEUVRE-LES-NANCY";"1"
"1547";"VILLARCEAUX";"BORDEAUX";"0.1659"
"1548";"VILLARCEAUX";"GRENOBLE";"0.3334"
"1549";"VILLARCEAUX";"LILLE";"1.0667"
"1550";"VILLARCEAUX";"LYON";"0.3333"
"1551";"VILLARCEAUX";"MONTPELLIER";"0.3333"
"1552";"VILLARCEAUX";"NANTES";"0.8333"
"1553";"VILLARCEAUX";"NICE";"0.0992"
"1554";"VILLARCEAUX";"PARIS";"3.3326"
"1555";"VILLARCEAUX";"TOULOUSE";"1.0667"
"1556";"VILLEFRANCHE-SUR-SAONE";"BORDEAUX";"0.1667"
"1557";"VILLEFRANCHE-SUR-SAONE";"GRENOBLE";"0.6666"
"1558";"VILLEFRANCHE-SUR-SAONE";"LYON";"6.5001"
"1559";"VILLEFRANCHE-SUR-SAONE";"MARSEILLE-AIX";"0.1667"
"1560";"VILLEFRANCHE-SUR-SAONE";"PARIS";"2.3333"
"1561";"VILLEFRANCHE-SUR-SAONE";"TOULOUSE";"0.3333"
"1562";"VILLEFRANCHE-SUR-SAONE";"VANDOEUVRE-LES-NANCY";"1"
"1563";"VILLIERS-EN-BOIS";"MONTPELLIER";"0.3333"
"1564";"VILLIERS-EN-BOIS";"PARIS";"0.3333"
"1565";"WIMEREUX";"CLERMONT-FERRAND";"0.3333"
"1566";"WIMEREUX";"GRENOBLE";"3"
"1567";"WIMEREUX";"LILLE";"3.6666"
"1568";"WIMEREUX";"NICE";"0.6666"
"1569";"WIMEREUX";"PARIS";"0.6666"
"1570";"WIMEREUX";"RENNES";"0.1667"
"1571";"ANNECY-LE-VIEUX";"BORDEAUX";"2"
"1572";"ANNECY-LE-VIEUX";"CLERMONT-FERRAND";"1.0278"
"1573";"ANNECY-LE-VIEUX";"GRENOBLE";"13.5"
"1574";"ANNECY-LE-VIEUX";"LYON";"7.6666"
"1575";"ANNECY-LE-VIEUX";"MARSEILLE-AIX";"1.1667"
"1576";"ANNECY-LE-VIEUX";"MONTPELLIER";"0.1945"
"1577";"ANNECY-LE-VIEUX";"PARIS";"3.9834"
"1578";"ANNECY-LE-VIEUX";"RENNES";"0.5"
"1579";"ANNECY-LE-VIEUX";"TOULOUSE";"1"
"1580";"ANNECY-LE-VIEUX";"VANDOEUVRE-LES-NANCY";"1.2666"
"1581";"BORDEAUX";"CLERMONT-FERRAND";"6.6888"
"1582";"BORDEAUX";"GRENOBLE";"91.6253"
"1583";"BORDEAUX";"LILLE";"29.1967"
"1584";"BORDEAUX";"LYON";"57.8278"
"1585";"BORDEAUX";"MARSEILLE-AIX";"38.6286"
"1586";"BORDEAUX";"MONTPELLIER";"60.4842"
"1587";"BORDEAUX";"NANTES";"58.1634"
"1588";"BORDEAUX";"NICE";"7.4324"
"1589";"BORDEAUX";"PARIS";"287.4945"
"1590";"BORDEAUX";"RENNES";"55.7762"
"1591";"BORDEAUX";"STRASBOURG";"27.5969"
"1592";"BORDEAUX";"TOULOUSE";"104.1031"
"1593";"BORDEAUX";"VANDOEUVRE-LES-NANCY";"14.1143"
"1594";"CLERMONT-FERRAND";"GRENOBLE";"22.5834"
"1595";"CLERMONT-FERRAND";"LILLE";"11.9833"
"1596";"CLERMONT-FERRAND";"LYON";"29.1833"
"1597";"CLERMONT-FERRAND";"MARSEILLE-AIX";"2.1222"
"1598";"CLERMONT-FERRAND";"MONTPELLIER";"17.9017"
"1599";"CLERMONT-FERRAND";"NANTES";"9.2144"
"1600";"CLERMONT-FERRAND";"NICE";"10.9999"
"1601";"CLERMONT-FERRAND";"PARIS";"112.0652"
"1602";"CLERMONT-FERRAND";"RENNES";"26.2365"
"1603";"CLERMONT-FERRAND";"STRASBOURG";"2.2612"
"1604";"CLERMONT-FERRAND";"TOULOUSE";"20.6589"
"1605";"CLERMONT-FERRAND";"VANDOEUVRE-LES-NANCY";"17.3699"
"1606";"GRENOBLE";"LILLE";"67.0527"
"1607";"GRENOBLE";"LYON";"355.8248"
"1608";"GRENOBLE";"MARSEILLE-AIX";"105.896"
"1609";"GRENOBLE";"MONTPELLIER";"108.3026"
"1610";"GRENOBLE";"NANTES";"52.4977"
"1611";"GRENOBLE";"NICE";"17.3"
"1612";"GRENOBLE";"PARIS";"705.902"
"1613";"GRENOBLE";"RENNES";"37.8762"
"1614";"GRENOBLE";"STRASBOURG";"59.5619"
"1615";"GRENOBLE";"TOULOUSE";"107.0064"
"1616";"GRENOBLE";"VANDOEUVRE-LES-NANCY";"38.2247"
"1617";"LILLE";"LYON";"80.8413"
"1618";"LILLE";"MARSEILLE-AIX";"16.0579"
"1619";"LILLE";"MONTPELLIER";"22.5334"
"1620";"LILLE";"NANTES";"24.1993"
"1621";"LILLE";"NICE";"12.2668"
"1622";"LILLE";"PARIS";"354.9337"
"1623";"LILLE";"RENNES";"27.1436"
"1624";"LILLE";"STRASBOURG";"21.2159"
"1625";"LILLE";"TOULOUSE";"32.0301"
"1626";"LILLE";"VANDOEUVRE-LES-NANCY";"14.369"
"1627";"LYON";"MARSEILLE-AIX";"66.9674"
"1628";"LYON";"MONTPELLIER";"141.8429"
"1629";"LYON";"NANTES";"32.7301"
"1630";"LYON";"NICE";"15.8667"
"1631";"LYON";"PARIS";"720.4266"
"1632";"LYON";"RENNES";"43.2078"
"1633";"LYON";"STRASBOURG";"65.3357"
"1634";"LYON";"TOULOUSE";"69.1048"
"1635";"LYON";"VANDOEUVRE-LES-NANCY";"34.4088"
"1636";"MARSEILLE-AIX";"MONTPELLIER";"72.8319"
"1637";"MARSEILLE-AIX";"NANTES";"10.3357"
"1638";"MARSEILLE-AIX";"NICE";"14.4023"
"1639";"MARSEILLE-AIX";"PARIS";"223.6649"
"1640";"MARSEILLE-AIX";"RENNES";"39.3746"
"1641";"MARSEILLE-AIX";"STRASBOURG";"20.8969"
"1642";"MARSEILLE-AIX";"TOULOUSE";"57.5667"
"1643";"MARSEILLE-AIX";"VANDOEUVRE-LES-NANCY";"14.9293"
"1644";"MONTPELLIER";"NANTES";"23.4611"
"1645";"MONTPELLIER";"NICE";"14.3689"
"1646";"MONTPELLIER";"PARIS";"280.7215"
"1647";"MONTPELLIER";"RENNES";"28.5533"
"1648";"MONTPELLIER";"STRASBOURG";"35.3969"
"1649";"MONTPELLIER";"TOULOUSE";"85.0144"
"1650";"MONTPELLIER";"VANDOEUVRE-LES-NANCY";"30.0651"
"1651";"NANTES";"NICE";"6.1"
"1652";"NANTES";"PARIS";"278.3166"
"1653";"NANTES";"RENNES";"59.3833"
"1654";"NANTES";"STRASBOURG";"10.8301"
"1655";"NANTES";"TOULOUSE";"27.2047"
"1656";"NANTES";"VANDOEUVRE-LES-NANCY";"21.369"
"1657";"NICE";"PARIS";"72.1128"
"1658";"NICE";"RENNES";"1.1667"
"1659";"NICE";"STRASBOURG";"7.5999"
"1660";"NICE";"TOULOUSE";"4.8557"
"1661";"NICE";"VANDOEUVRE-LES-NANCY";"1.6667"
"1662";"PARIS";"RENNES";"204.0246"
"1663";"PARIS";"STRASBOURG";"299.9174"
"1664";"PARIS";"TOULOUSE";"434.3719"
"1665";"PARIS";"VANDOEUVRE-LES-NANCY";"185.7367"
"1666";"RENNES";"STRASBOURG";"64.4214"
"1667";"RENNES";"TOULOUSE";"47.2356"
"1668";"RENNES";"VANDOEUVRE-LES-NANCY";"31.8833"
"1669";"STRASBOURG";"TOULOUSE";"50.3269"
"1670";"STRASBOURG";"VANDOEUVRE-LES-NANCY";"59.2688"
"1671";"TOULOUSE";"VANDOEUVRE-LES-NANCY";"27.9024"
